<svg width="306" height="162" viewBox="0 0 306 162" fill="none" xmlns="http://www.w3.org/2000/svg">
<g clip-path="url(#clip0)">
<path d="M102.278 90.8338C107.46 88.298 113.784 82.8991 115.293 78.1546C116.803 73.4101 114.804 66.4978 103.257 62.4487C91.711 58.3995 75.5542 62.5305 67.5982 65.1481C70.3318 65.3526 71.719 65.8843 71.7598 66.2115C71.8006 66.5387 70.7806 67.7249 70.7806 67.7249C70.7806 67.7249 72.2086 68.5429 73.4326 68.8701C74.3302 67.9294 75.4318 64.8618 75.4318 64.8618C75.4318 64.8618 75.7174 67.8067 74.4526 69.3609C75.2278 70.138 76.7374 69.729 76.7374 69.729C76.7374 69.729 78.043 67.275 78.247 65.6389C78.4918 67.7658 77.9206 69.7699 77.9206 69.7699C77.9206 69.7699 79.6342 70.3016 80.491 70.1789C81.0622 68.7065 81.511 66.9887 81.511 66.9887C81.511 66.9887 81.9598 69.6472 81.6742 70.4243C82.327 70.7106 83.0614 70.3016 83.0614 70.3016C83.0614 70.3016 83.9998 67.6431 83.9998 66.1297C84.6118 68.2566 84.6118 69.8926 84.6118 69.8926L87.9166 70.4243C87.9166 70.4243 89.7934 66.4978 89.0998 62.2033C90.8134 67.1114 90.2014 71.0787 90.2014 71.0787C90.2014 71.0787 91.7518 71.0787 93.5062 73.3283C95.179 71.6513 95.3014 65.7207 95.3014 63.5121C96.6886 67.5613 96.199 71.1605 95.3422 74.4326C96.5254 75.4551 98.0758 76.5594 98.0758 76.5594C98.0758 76.5594 102.401 70.3834 103.461 68.2157C102.115 72.3876 98.3206 77.4184 98.3206 77.4184L98.7694 78.0319C98.7694 78.0319 104.441 72.5512 105.665 70.5061C103.461 75.2097 96.811 82.94 96.811 82.94C96.811 82.94 102.768 76.723 105.991 71.8558C104.808 75.1688 99.0142 82.6128 99.0142 82.6128L100.687 85.9666C100.687 85.9666 106.929 78.4 109.214 73.4101C108.48 78.5636 101.299 87.1936 101.299 87.1936L102.278 90.8338Z" fill="#172541"/>
<path d="M10.111 38.9716C12.6814 37.4583 27.247 31.5686 28.7158 31.1595C30.1846 30.7914 31.3678 31.5277 33.5302 32.4275C35.6926 33.3273 54.787 45.1067 65.8438 59.9537C67.231 62.6941 67.639 66.2115 66.2926 66.0479C64.9462 65.8843 62.6206 62.326 62.2126 62.0806C61.8046 61.8352 61.1518 63.6757 61.1518 63.6757L58.051 61.7534C58.051 61.7534 58.7446 59.7492 58.2958 57.0907C57.3982 60.3627 56.5822 61.5489 56.0926 61.9988C55.603 62.4896 53.8894 62.326 53.8894 62.326C53.8894 62.326 54.991 57.7042 54.9094 55.3319C53.3998 57.9087 53.0326 59.9537 53.0326 59.9537L49.7278 58.1541C49.7278 58.1541 49.8094 55.8636 50.7886 53.6959C49.687 54.5957 48.4222 57.377 48.4222 57.377C48.4222 57.377 47.035 56.3954 47.1574 55.1274C47.2798 53.8595 48.667 50.8737 48.667 50.8737C48.667 50.8737 45.8926 52.3053 44.383 55.2092C42.5878 54.882 42.7918 54.3503 42.7918 54.3503C42.7918 54.3503 43.3222 50.342 43.363 50.0557C43.4038 49.7694 41.4454 54.2685 41.2006 55.8636C41.119 51.8963 43.4854 46.9064 43.4854 46.9064C43.4854 46.9064 38.263 50.7919 37.1614 51.4055C36.0598 52.019 34.1422 49.115 31.4902 50.5874C32.3878 47.6835 35.2846 43.1026 35.2846 43.1026C35.2846 43.1026 31.2862 44.2069 27.451 54.3503C27.6142 50.342 31.2862 44.0024 33.8566 41.6302C30.307 43.1435 26.1862 49.8512 26.1862 49.8512L21.5758 47.7244C21.5758 47.7244 23.7382 41.7529 32.143 38.1945C27.5734 39.1352 22.7998 41.0166 19.699 46.0883C17.863 44.3296 12.7222 42.5709 12.7222 42.5709C12.7222 42.5709 23.2894 37.2538 29.899 34.4316C21.2902 36.1903 12.8854 40.9348 12.8854 40.9348L10.111 38.9716Z" fill="#172541"/>
<path d="M55.9294 193.454C55.9294 193.454 68.0062 199.18 67.5574 199.016C67.1494 198.853 59.1526 90.0158 68.1286 68.2975C67.8022 66.7432 66.619 65.1072 66.2518 66.0479C55.9294 93.0016 55.9294 193.454 55.9294 193.454Z" fill="#172541"/>
<path d="M74.1262 42.5709C73.9222 47.6426 76.6966 53.0824 77.023 53.655C77.023 53.6959 77.0638 53.6959 77.0638 53.6959C77.0638 53.6959 77.0638 53.655 77.023 53.655C76.819 53.2869 75.5134 50.9146 73.0654 48.8287C74.1262 55.0456 70.0462 62.4487 67.3942 64.4528C70.1686 63.6757 82.8574 59.2584 82.8574 59.2584C82.8574 59.2584 80.695 59.7083 77.9206 59.2584C83.4694 58.4404 90.9358 55.7818 95.6278 51.2827C92.6902 51.4872 87.427 50.5874 87.427 50.5874C87.427 50.5874 94.4446 50.342 96.5662 49.7694C102.809 43.9615 101.748 35.4541 101.748 35.4541C101.748 35.4541 96.8926 36.9674 93.4654 38.1945C98.1982 34.4725 102.441 32.5093 102.441 32.5093C102.441 32.5093 104.033 24.5745 98.3206 6.94626C97.627 12.3043 91.0174 24.0428 88.4878 24.6972C89.5486 26.865 90.7318 31.814 90.7318 31.814C90.7318 31.814 89.0182 29.728 87.4678 26.2105C86.9374 30.0961 82.9798 37.0084 76.6558 39.9941C78.2062 42.6527 79.267 50.9146 79.267 50.9146C79.267 50.9146 75.9214 47.3563 74.1262 42.5709ZM78.451 55.7818C79.7566 54.2685 80.9398 52.6325 82.123 50.9964C84.4078 47.6835 86.4478 44.2069 88.2838 40.6485C88.7734 39.7896 89.1814 38.8489 89.6302 37.9491C90.079 37.0493 90.5278 36.1494 90.9358 35.2087L92.2006 32.4684L93.4246 29.6871L94.0366 28.2965L94.6078 26.9059L95.791 24.1246C96.5662 22.2432 97.2598 20.3617 98.0758 18.5212C97.7902 19.5028 97.5046 20.4435 97.219 21.4251C96.9334 22.4068 96.6478 23.3475 96.3214 24.3291C95.6278 26.2514 95.0158 28.1738 94.2406 30.0552C92.8126 33.859 91.099 37.5401 89.263 41.1393C87.3862 44.7386 85.3054 48.2561 82.8166 51.4872C81.5926 53.1233 80.287 54.6775 78.859 56.109C77.431 57.5406 75.9214 58.9312 74.2894 60.1173C75.7582 58.7676 77.1862 57.2952 78.451 55.7818Z" fill="#172541"/>
<path d="M94.771 114.065C95.5462 111.039 94.6486 107.153 93.0982 104.985C91.5478 102.818 88.2838 96.928 88.2838 96.928C88.2838 96.928 92.527 99.4639 93.8734 102.818C94.3222 97.7052 91.9966 88.7479 89.5078 85.4349C88.8958 84.3306 80.2054 81.5084 80.2054 81.5084C80.2054 81.5084 87.5494 82.8582 94.8118 86.2529C87.3454 81.7129 79.2262 80.1587 79.1446 80.0769C79.063 79.9951 82.8574 79.3407 87.3046 81.0994C83.755 76.1095 80.5318 74.2281 79.3486 74.0645C78.1654 73.9009 74.0038 73.451 74.0038 73.451C74.0038 73.451 76.3702 72.4694 78.4102 72.8784C75.2686 70.6697 72.943 70.7106 71.4334 69.6881C69.9238 68.6656 66.7414 65.9661 66.7414 65.9661C67.843 67.275 70.6174 74.7189 69.6382 78.9726C68.659 83.2263 69.9238 88.8297 69.9238 88.8297C69.9238 88.8297 71.719 83.2263 73.1062 80.7722C72.3718 87.0709 70.2094 93.2879 70.2094 93.2879C70.2094 93.2879 73.0246 88.298 73.5142 85.8439C72.535 91.8154 67.6798 99.6684 67.8022 103.472C70.6174 97.1734 74.2078 88.2571 74.2078 88.2571C74.2078 88.2571 71.7598 97.1325 72.9838 100.323C74.2078 103.472 74.6566 105.763 74.6566 105.763C74.6566 105.763 78.859 99.3003 80.7766 98.4414C77.5534 103.677 75.2278 108.012 75.2278 108.012L76.4926 110.425C76.4926 110.425 80.5726 104.454 82.0414 100.895C82.2046 100.364 82.3678 99.832 82.531 99.2594C82.4902 99.7093 82.2862 100.241 82.0414 100.895C79.5934 108.748 77.431 111.611 76.7782 113.084C76.1254 114.679 76.7782 118.483 77.7166 120.241C80.1646 114.72 83.3062 108.217 83.3062 108.217C83.3062 108.217 80.1238 118.196 79.1038 121.55C78.043 124.904 78.043 125.886 78.043 125.886C78.043 125.886 82.1638 117.174 83.2246 113.288C82.2454 120.65 80.3278 124.372 80.0422 125.681C79.7566 126.949 79.8382 128.994 81.4702 131.571C83.2654 127.154 87.4678 116.601 87.5494 109.975C88.5694 113.656 87.9982 119.751 87.9982 119.751C87.9982 119.751 94.2406 111.489 89.1406 103.922C91.915 105.722 94.363 111.652 94.771 114.065ZM84.8974 102.9L84.2446 100.527L83.551 98.1551C82.5718 95.0057 81.511 91.8972 80.287 88.8297C79.063 85.7621 77.7166 82.7764 76.1662 79.8724C75.391 78.4409 74.575 76.9685 73.7182 75.5778C72.8614 74.1463 71.9638 72.7966 70.9846 71.4468C73.2694 73.86 75.2278 76.6003 76.9006 79.4225C78.6142 82.2856 80.0422 85.3122 81.307 88.3798C82.531 91.4882 83.551 94.6376 84.367 97.8688C85.2238 101.1 85.7542 104.372 86.203 107.644C85.7134 106.09 85.387 104.495 84.8974 102.9Z" fill="#172541"/>
<path d="M64.783 66.2524C62.2126 65.8025 59.3566 64.9436 55.3174 64.2074C57.3982 65.4753 57.7654 67.275 57.7654 67.275C57.7654 67.275 51.8494 63.0213 49.3606 62.9395C46.8718 62.8577 42.955 62.8577 42.955 62.8577C42.955 62.8577 48.5038 63.8393 49.6462 67.275C43.0366 63.3894 37.447 61.7125 36.8758 61.5079C35.9374 61.5898 33.6118 62.5305 33.6118 62.5305C33.6118 62.5305 40.915 63.7984 48.1366 67.8476C42.1798 65.598 38.5894 64.8618 36.5086 65.3526C34.4278 65.8434 29.7358 66.0888 25.3294 71.2833C30.6334 69.5245 35.6518 70.9151 35.6518 70.9151C35.6518 70.9151 23.5342 73.4101 16.5574 76.0277C24.6766 75.2097 31.8982 73.2465 31.8982 73.2465C31.8982 73.2465 22.4326 76.4368 21.2494 77.0912C20.0254 77.7456 17.455 81.8357 17.455 81.8357C17.455 81.8357 24.8806 77.991 28.1446 77.9092C22.5958 80.5677 17.7406 84.5351 16.8838 85.8848C16.027 87.2346 14.1502 92.1836 14.1502 92.1836C14.1502 92.1836 21.0454 84.2488 24.8398 83.1036C19.5766 88.5843 17.3734 92.7153 16.5574 94.8012C15.7414 96.8872 13.1302 102.777 13.1302 102.777C13.1302 102.777 16.8838 101.427 18.1078 99.7093C19.3318 97.9915 19.7806 92.5108 24.2686 89.1978C20.719 95.2102 19.1278 99.423 18.679 102.981C20.7598 97.5825 23.7382 90.1385 27.859 86.4575C23.9422 94.5967 22.7182 97.5825 22.7182 97.5825C22.7182 97.5825 26.7574 95.5374 27.9814 93.656C29.2054 91.7746 31.8166 84.7396 33.4894 82.4901C31.2454 87.6027 30.6334 90.7111 30.6334 90.7111C31.735 89.0751 33.5302 88.7479 34.3054 87.7663C35.0806 86.7847 34.795 83.4308 36.3046 80.7313C35.815 84.7805 35.8966 88.9115 36.223 90.7929C37.8142 87.889 40.507 87.5618 41.7718 86.1712C43.0366 84.7396 44.3422 81.6721 44.3422 81.6721C44.3422 81.6721 42.7918 87.6845 43.4446 89.2387C44.3014 84.4533 45.9742 78.9317 48.0142 76.355C46.423 80.854 46.0558 83.6762 46.0558 83.6762C46.0558 83.6762 49.0342 75.0052 53.1958 72.8784C49.8094 78.1546 48.2998 81.5903 48.2998 81.5903C48.2998 81.5903 54.2974 77.582 56.9902 74.8007C59.683 72.0195 61.723 70.0562 64.0078 68.502C66.0478 67.1114 66.3334 66.1706 64.783 66.2524ZM57.847 69.1564C56.3374 69.5245 54.9094 69.9744 53.4406 70.4652L51.2782 71.2423L49.1566 72.1013L47.035 73.0011L44.9542 73.9827C42.1798 75.2915 39.487 76.7231 36.7942 78.2773L34.795 79.4634C34.1422 79.8315 33.4894 80.2814 32.8366 80.6904C31.4902 81.4676 30.2662 82.3674 28.9198 83.1854C31.2862 81.1813 33.7342 79.2589 36.3454 77.582C38.9566 75.905 41.6902 74.3917 44.5054 73.042C47.3206 71.7332 50.2174 70.5879 53.2366 69.729C54.7462 69.32 56.2558 68.9519 57.8062 68.7065C59.3566 68.502 60.907 68.2975 62.4574 68.4202C60.8662 68.502 59.3566 68.7883 57.847 69.1564Z" fill="#172541"/>
<path d="M68.2918 63.0213C67.9654 60.4445 69.1894 50.3829 72.4942 43.8388C70.4134 46.7836 67.7614 51.0373 67.7614 51.0373C67.7614 51.0373 71.3926 40.0759 78.2062 33.8181C74.4934 36.1903 67.6798 48.0516 67.6798 48.0516C67.6798 48.0516 70.495 42.2028 69.9238 39.0125C69.3934 35.8222 67.7614 31.6504 68.6998 28.6646C66.619 29.728 63.4774 35.1678 63.4774 35.1678C63.4774 35.1678 67.1494 28.0511 66.9454 25.8833C66.7414 23.7156 65.1094 19.1756 62.2534 16.7216C61.7638 20.7707 58.7038 24.0428 58.7038 24.0428C58.7038 24.0428 62.131 16.3944 61.8862 12.1816C60.0502 19.7482 57.847 22.734 57.847 22.734C57.847 22.734 59.8054 15.8626 59.2342 14.881C58.7038 13.8585 54.175 10.4228 51.1966 9.11401C52.339 11.3636 50.8702 15.3718 50.8702 15.3718C50.8702 15.3718 49.9726 9.07311 47.239 7.43708C44.5054 5.80104 39.487 4.41042 39.487 4.41042C39.487 4.41042 42.139 7.35527 43.1182 12.6315C44.0974 17.8668 44.9542 23.5929 47.7286 25.3925C50.5438 27.1922 54.0934 29.3599 54.0934 29.3599C54.0934 29.3599 47.851 25.7606 43.4446 28.2965C47.5246 27.6421 52.8694 28.6646 56.8678 31.7731C53.359 32.7956 49.891 31.814 48.5038 30.8732C51.1558 34.7588 56.3782 39.4624 55.9294 43.348C60.0502 45.2703 61.927 45.7202 61.927 45.7202C61.927 45.7202 55.7254 45.6384 51.1966 43.4298C54.9502 46.1701 62.5798 47.7653 62.5798 47.7653C62.5798 47.7653 59.9278 48.5015 57.9694 48.0516C61.0294 49.5649 62.6614 51.8554 64.6198 55.7818C66.5374 59.7492 66.5782 61.5079 66.7414 62.4487C66.9862 63.3894 68.4142 64.1256 68.2918 63.0213ZM64.7422 48.5833C63.6406 44.984 62.3758 41.4256 60.9478 37.99C59.5198 34.5134 57.9286 31.1186 56.1742 27.8057C55.7254 26.9877 55.2766 26.1696 54.8278 25.3516C54.379 24.5336 53.8894 23.7156 53.3998 22.9385C52.4206 21.3433 51.4006 19.7482 50.2582 18.2349C52.8286 21.0161 54.991 24.1655 56.9086 27.4376C58.867 30.7096 60.499 34.1044 61.9678 37.6219C63.3958 41.1393 64.6198 44.7386 65.5582 48.4197C66.4966 52.1008 67.1494 55.8636 67.5574 59.5856C66.7414 55.8227 65.803 52.1826 64.7422 48.5833Z" fill="#172541"/>
<path d="M63.5182 62.2442C64.8238 64.1256 65.4766 66.0479 62.8654 66.6205C64.9054 67.6022 65.1094 69.32 64.9054 70.3425C66.9046 68.9519 68.0878 68.911 69.3934 69.3609C68.7406 67.1932 69.5158 64.6573 71.5966 64.1665C69.3526 64.5755 70.4542 62.7759 71.7598 61.917C69.5566 62.4896 67.9246 61.7942 67.8022 60.4854C67.0678 61.3034 65.8846 60.7717 65.2726 59.9128C65.395 61.9579 63.5182 62.2442 63.5182 62.2442Z" fill="#172541"/>
<path d="M55.3582 136.725C57.5206 135.661 60.1318 133.452 60.7438 131.489C61.3558 129.526 60.5398 126.663 55.7662 124.986C50.9926 123.309 44.3014 125.027 40.9966 126.09C42.139 126.172 42.7102 126.377 42.7102 126.54C42.751 126.663 42.3022 127.154 42.3022 127.154C42.3022 127.154 42.9142 127.481 43.4038 127.604C43.771 127.195 44.2198 125.968 44.2198 125.968C44.2198 125.968 44.3422 127.195 43.8118 127.808C44.1382 128.135 44.7502 127.972 44.7502 127.972C44.7502 127.972 45.2806 126.949 45.3622 126.254C45.4438 127.154 45.2398 127.972 45.2398 127.972C45.2398 127.972 45.9334 128.176 46.3006 128.135C46.5454 127.522 46.7086 126.827 46.7086 126.827C46.7086 126.827 46.9126 127.931 46.7902 128.258C47.0758 128.381 47.3614 128.217 47.3614 128.217C47.3614 128.217 47.7286 127.113 47.7286 126.499C47.9734 127.399 47.9734 128.054 47.9734 128.054L49.3606 128.258C49.3606 128.258 50.1358 126.622 49.8502 124.863C50.5438 126.867 50.299 128.544 50.299 128.544C50.299 128.544 50.9518 128.544 51.6454 129.485C52.339 128.79 52.3798 126.336 52.3798 125.436C52.951 127.113 52.747 128.585 52.3798 129.976C52.8694 130.385 53.5222 130.876 53.5222 130.876C53.5222 130.876 55.3174 128.34 55.7662 127.44C55.195 129.158 53.6446 131.244 53.6446 131.244L53.8486 131.489C53.8486 131.489 56.215 129.199 56.7046 128.381C55.807 130.344 53.0326 133.534 53.0326 133.534C53.0326 133.534 55.5214 130.958 56.827 128.953C56.3374 130.303 53.9302 133.412 53.9302 133.412L54.6238 134.802C54.6238 134.802 57.1942 131.694 58.1326 129.608C57.847 131.735 54.8686 135.293 54.8686 135.293L55.3582 136.725Z" fill="#172541"/>
<path d="M17.1694 115.252C18.2302 114.638 24.2686 112.184 24.8806 112.02C25.4926 111.857 25.9822 112.184 26.8798 112.552C27.7774 112.92 35.6926 117.828 40.2622 123.923C40.8334 125.068 40.9966 126.499 40.4662 126.458C39.895 126.377 38.9566 124.904 38.7934 124.822C38.6302 124.741 38.3446 125.477 38.3446 125.477L37.0798 124.659C37.0798 124.659 37.3654 123.841 37.1614 122.736C36.7942 124.086 36.4678 124.577 36.2638 124.781C36.0598 124.986 35.3662 124.904 35.3662 124.904C35.3662 124.904 35.815 122.982 35.7742 122C35.1622 123.064 34.999 123.923 34.999 123.923L33.6526 123.186C33.6526 123.186 33.6934 122.246 34.1014 121.346C33.6526 121.714 33.1222 122.859 33.1222 122.859C33.1222 122.859 32.551 122.45 32.5918 121.918C32.6326 121.387 33.2038 120.16 33.2038 120.16C33.2038 120.16 32.0614 120.773 31.4494 121.959C30.715 121.837 30.7966 121.591 30.7966 121.591C30.7966 121.591 31.0006 119.914 31.0414 119.792C31.0414 119.669 30.2254 121.55 30.1438 122.205C30.103 120.569 31.0822 118.483 31.0822 118.483C31.0822 118.483 28.9198 120.119 28.471 120.364C28.0222 120.61 27.2062 119.423 26.1046 120.037C26.4718 118.851 27.655 116.929 27.655 116.929C27.655 116.929 26.023 117.378 24.4318 121.591C24.5134 119.914 26.023 117.297 27.0838 116.315C25.615 116.929 23.9014 119.71 23.9014 119.71L22.0246 118.81C22.0246 118.81 22.9222 116.356 26.3902 114.883C24.4726 115.293 22.5142 116.029 21.2494 118.156C20.4742 117.419 18.3526 116.683 18.3526 116.683C18.3526 116.683 22.7182 114.474 25.4518 113.329C21.9022 114.065 18.4342 116.029 18.4342 116.029L17.1694 115.252Z" fill="#172541"/>
<path d="M36.1414 179.22C36.1414 179.22 41.119 181.593 40.9558 181.511C40.7926 181.429 37.4878 136.397 41.2006 127.399C41.0782 126.745 40.5886 126.09 40.4254 126.458C36.1414 137.624 36.1414 179.22 36.1414 179.22Z" fill="#172541"/>
<path d="M43.6894 116.724C43.6078 118.81 44.7502 121.06 44.8726 121.305V121.346C44.8726 121.346 44.8726 121.346 44.8726 121.305C44.791 121.141 44.2606 120.16 43.2406 119.301C43.6894 121.878 41.9758 124.945 40.915 125.763C42.0574 125.436 47.3206 123.595 47.3206 123.595C47.3206 123.595 46.423 123.8 45.2806 123.595C47.5654 123.268 50.6662 122.164 52.6246 120.282C51.4006 120.364 49.2382 119.996 49.2382 119.996C49.2382 119.996 52.135 119.873 53.0326 119.669C55.603 117.256 55.1542 113.738 55.1542 113.738C55.1542 113.738 53.155 114.352 51.727 114.883C53.6854 113.329 55.4398 112.552 55.4398 112.552C55.4398 112.552 56.0926 109.28 53.7262 101.959C53.4406 104.167 50.707 109.035 49.6462 109.321C50.095 110.221 50.5846 112.266 50.5846 112.266C50.5846 112.266 49.891 111.407 49.2382 109.934C49.0342 111.53 47.3614 114.393 44.7502 115.661C45.403 116.765 45.8518 120.201 45.8518 120.201C45.8518 120.201 44.4238 118.728 43.6894 116.724ZM45.4846 122.205C46.015 121.55 46.5046 120.896 46.9942 120.241C47.9326 118.892 48.7894 117.419 49.5646 115.947C49.7686 115.579 49.9318 115.211 50.1358 114.843C50.3398 114.474 50.503 114.106 50.6662 113.697L51.1966 112.552L51.6862 111.407L51.931 110.834L52.1758 110.262L52.6654 109.116C52.9918 108.339 53.2774 107.562 53.6038 106.785C53.4814 107.194 53.359 107.603 53.2366 107.971C53.1142 108.38 52.9918 108.789 52.8694 109.157C52.5838 109.934 52.339 110.753 52.0126 111.53C51.4414 113.084 50.707 114.638 49.9318 116.111C49.1566 117.583 48.2998 119.055 47.2798 120.405C46.7902 121.06 46.219 121.714 45.6478 122.327C45.0358 122.941 44.4238 123.473 43.771 124.004C44.3422 123.432 44.9542 122.859 45.4846 122.205Z" fill="#172541"/>
<path d="M52.2166 146.336C52.543 145.068 52.1758 143.473 51.523 142.573C50.8702 141.674 49.5238 139.219 49.5238 139.219C49.5238 139.219 51.2782 140.283 51.8494 141.674C52.0126 139.547 51.0742 135.866 50.0542 134.475C49.8094 134.025 46.219 132.839 46.219 132.839C46.219 132.839 49.2382 133.412 52.2574 134.802C49.1566 132.921 45.811 132.266 45.7702 132.225C45.7294 132.185 47.3206 131.898 49.1566 132.634C47.6878 130.589 46.3414 129.812 45.8518 129.73C45.3622 129.649 43.6486 129.485 43.6486 129.485C43.6486 129.485 44.6278 129.076 45.4846 129.24C44.179 128.34 43.1998 128.34 42.5878 127.931C41.9758 127.522 40.6294 126.377 40.6294 126.377C41.0782 126.908 42.2206 130.017 41.8126 131.776C41.4046 133.534 41.935 135.866 41.935 135.866C41.935 135.866 42.6694 133.534 43.2406 132.512C42.9142 135.129 42.0574 137.706 42.0574 137.706C42.0574 137.706 43.2406 135.62 43.4446 134.639C43.0366 137.093 41.0374 140.365 41.0782 141.96C42.2614 139.342 43.7302 135.661 43.7302 135.661C43.7302 135.661 42.7102 139.342 43.2406 140.651C43.7302 141.96 43.9342 142.901 43.9342 142.901C43.9342 142.901 45.6478 140.242 46.4638 139.874C45.1174 142.042 44.179 143.841 44.179 143.841L44.7094 144.864C44.7094 144.864 46.423 142.41 46.9942 140.937C47.0758 140.733 47.1166 140.487 47.1982 140.242C47.1574 140.406 47.1166 140.651 46.9942 140.937C45.9742 144.168 45.0766 145.355 44.8318 145.968C44.5462 146.623 44.8318 148.218 45.199 148.913C46.219 146.623 47.5246 143.923 47.5246 143.923C47.5246 143.923 46.219 148.054 45.7702 149.445C45.3214 150.835 45.3214 151.244 45.3214 151.244C45.3214 151.244 47.035 147.645 47.443 146.009C47.035 149.036 46.2598 150.59 46.1374 151.122C46.015 151.653 46.0558 152.512 46.7086 153.576C47.443 151.735 49.1974 147.359 49.1974 144.618C49.6054 146.132 49.4014 148.668 49.4014 148.668C49.4014 148.668 51.9718 145.232 49.891 142.123C51.0742 142.901 52.0534 145.355 52.2166 146.336ZM48.1366 141.714L47.851 140.733L47.5654 139.751C47.1574 138.442 46.7086 137.174 46.219 135.907C45.7294 134.639 45.1582 133.412 44.5054 132.185C44.179 131.571 43.8526 130.998 43.4854 130.426C43.1182 129.853 42.751 129.281 42.343 128.708C43.2814 129.69 44.0974 130.835 44.791 132.021C45.4846 133.207 46.0966 134.475 46.627 135.743C47.1166 137.011 47.5654 138.32 47.8918 139.669C48.259 141.019 48.463 142.369 48.6262 143.719C48.463 143.064 48.3406 142.369 48.1366 141.714Z" fill="#172541"/>
<path d="M39.8134 126.54C38.7526 126.377 37.5694 126.009 35.8966 125.681C36.7534 126.213 36.9166 126.949 36.9166 126.949C36.9166 126.949 34.4686 125.19 33.4486 125.15C32.4286 125.109 30.7966 125.109 30.7966 125.109C30.7966 125.109 33.0814 125.518 33.571 126.949C30.8374 125.354 28.5118 124.659 28.267 124.577C27.8998 124.618 26.9206 124.986 26.9206 124.986C26.9206 124.986 29.9398 125.518 32.9182 127.195C30.4702 126.254 28.9606 125.968 28.1038 126.172C27.247 126.377 25.2886 126.458 23.4526 128.626C25.6558 127.89 27.7366 128.463 27.7366 128.463C27.7366 128.463 22.7182 129.485 19.8214 130.589C23.167 130.262 26.1862 129.444 26.1862 129.444C26.1862 129.444 22.2694 130.753 21.7798 131.039C21.2902 131.326 20.1886 133.003 20.1886 133.003C20.1886 133.003 23.2486 131.407 24.6358 131.367C22.351 132.471 20.311 134.107 19.9846 134.679C19.6174 135.252 18.8422 137.297 18.8422 137.297C18.8422 137.297 21.6982 134.025 23.2486 133.534C21.0862 135.784 20.1478 137.502 19.8214 138.401C19.495 139.26 18.3934 141.714 18.3934 141.714C18.3934 141.714 19.9438 141.142 20.4742 140.446C20.9638 139.751 21.1678 137.461 23.0038 136.07C21.535 138.565 20.8822 140.324 20.6782 141.755C21.535 139.506 22.7998 136.438 24.4726 134.925C22.8406 138.279 22.351 139.547 22.351 139.547C22.351 139.547 24.0238 138.688 24.5134 137.911C25.003 137.134 26.1046 134.23 26.7982 133.289C25.8598 135.416 25.615 136.684 25.615 136.684C26.0638 135.988 26.7982 135.866 27.1246 135.457C27.451 135.048 27.3286 133.657 27.9406 132.553C27.7366 134.23 27.7774 135.947 27.8998 136.725C28.5526 135.497 29.6542 135.375 30.1846 134.802C30.715 134.23 31.2454 132.921 31.2454 132.921C31.2454 132.921 30.5926 135.416 30.8782 136.07C31.2454 134.107 31.939 131.816 32.7958 130.753C32.143 132.634 31.9798 133.78 31.9798 133.78C31.9798 133.78 33.2038 130.18 34.9582 129.321C33.571 131.489 32.9182 132.921 32.9182 132.921C32.9182 132.921 35.407 131.244 36.5086 130.099C37.6102 128.953 38.467 128.135 39.4054 127.481C40.3438 126.908 40.4662 126.499 39.8134 126.54ZM36.9574 127.767C36.3454 127.931 35.7334 128.094 35.1214 128.299L34.2238 128.626L33.3262 128.994L32.4286 129.362L31.5718 129.771C30.4294 130.303 29.287 130.917 28.1854 131.53L27.3694 132.021C27.0838 132.185 26.839 132.348 26.5534 132.512C25.9822 132.839 25.4926 133.207 24.9214 133.534C25.9006 132.716 26.9206 131.898 27.9814 131.203C29.0422 130.508 30.1846 129.894 31.3678 129.321C32.551 128.79 33.7342 128.299 34.999 127.972C35.611 127.808 36.2638 127.645 36.8758 127.563C37.5286 127.481 38.1406 127.399 38.7934 127.44C38.1814 127.481 37.5694 127.604 36.9574 127.767Z" fill="#172541"/>
<path d="M41.2822 125.191C41.1598 124.127 41.6494 119.955 43.0366 117.256C42.1798 118.483 41.0782 120.242 41.0782 120.242C41.0782 120.242 42.5878 115.702 45.403 113.125C43.8526 114.106 41.0374 119.014 41.0374 119.014C41.0374 119.014 42.1798 116.601 41.9758 115.252C41.7718 113.943 41.0782 112.225 41.4454 110.957C40.5886 111.407 39.283 113.656 39.283 113.656C39.283 113.656 40.7926 110.712 40.711 109.812C40.6294 108.912 39.9358 107.031 38.7934 106.008C38.5894 107.685 37.3246 109.035 37.3246 109.035C37.3246 109.035 38.7526 105.844 38.6302 104.127C37.855 107.235 36.9574 108.503 36.9574 108.503C36.9574 108.503 37.7734 105.681 37.5286 105.231C37.3246 104.822 35.4478 103.39 34.183 102.859C34.6318 103.799 34.0606 105.476 34.0606 105.476C34.0606 105.476 33.6934 102.859 32.551 102.204C31.4086 101.509 29.3278 100.936 29.3278 100.936C29.3278 100.936 30.4294 102.163 30.8374 104.331C31.2454 106.499 31.6126 108.871 32.755 109.648C33.9382 110.384 35.407 111.284 35.407 111.284C35.407 111.284 32.8366 109.812 31.0006 110.834C32.6734 110.548 34.9174 110.998 36.5494 112.266C35.0806 112.716 33.6526 112.266 33.0814 111.898C34.183 113.493 36.3454 115.456 36.1414 117.051C37.855 117.828 38.6302 118.033 38.6302 118.033C38.6302 118.033 36.0598 117.992 34.183 117.092C35.7334 118.237 38.875 118.892 38.875 118.892C38.875 118.892 37.7734 119.219 36.9574 119.014C38.2222 119.628 38.9158 120.569 39.691 122.205C40.507 123.841 40.507 124.577 40.5886 124.945C40.711 125.354 41.323 125.681 41.2822 125.191ZM39.8134 119.219C39.3646 117.747 38.8342 116.274 38.263 114.843C37.6918 113.411 36.9982 111.98 36.2638 110.63C36.0598 110.303 35.8966 109.934 35.6926 109.607C35.4886 109.28 35.2846 108.953 35.0806 108.585C34.6726 107.93 34.2646 107.276 33.775 106.622C34.8358 107.767 35.7334 109.076 36.5494 110.425C37.3654 111.775 38.059 113.207 38.6302 114.638C39.2422 116.111 39.7318 117.583 40.099 119.096C40.4662 120.61 40.7518 122.164 40.915 123.718C40.6294 122.246 40.2622 120.732 39.8134 119.219Z" fill="#172541"/>
<path d="M39.283 124.904C39.8134 125.681 40.099 126.458 38.9974 126.704C39.8542 127.113 39.9358 127.808 39.8542 128.258C40.6702 127.685 41.1598 127.645 41.6902 127.849C41.4046 126.949 41.731 125.886 42.5878 125.681C41.6494 125.845 42.0982 125.109 42.6694 124.741C41.731 124.986 41.0782 124.7 41.0374 124.168C40.7518 124.495 40.2622 124.291 39.9766 123.923C40.099 124.781 39.283 124.904 39.283 124.904Z" fill="#172541"/>
<path d="M188.611 52.5097C188.611 52.5097 196.2 48.0925 206.114 51.2418C209.256 44.1251 217.783 38.8898 217.783 38.8898C217.783 38.8898 207.828 41.4256 205.339 48.3788C197.424 46.9881 192.691 48.5424 188.611 52.5097Z" fill="#172541"/>
<path d="M104.971 130.589C104.971 130.589 108.317 130.303 111.254 133.084C113.539 131.162 117.374 130.753 117.374 130.753C117.374 130.753 113.498 129.976 111.458 131.939C108.969 130.139 107.052 129.894 104.971 130.589Z" fill="#172541"/>
<path d="M88.7734 136.029C88.7734 136.029 94.4446 136.684 98.4022 142.164C102.809 139.669 109.255 140.283 109.255 140.283C109.255 140.283 103.094 137.747 99.0958 140.406C95.5054 136.561 92.4454 135.579 88.7734 136.029Z" fill="#172541"/>
<path d="M177.432 41.5074C177.432 41.5074 182.491 39.8714 187.917 43.0208C190.692 39.217 196.404 37.2537 196.404 37.2537C196.404 37.2537 190.202 37.4582 187.836 41.2211C183.389 39.3806 180.369 39.7078 177.432 41.5074Z" fill="#172541"/>
<path d="M187.061 28.9918C187.061 28.9918 190.202 27.5603 193.956 29.1554C195.465 26.4968 199.015 24.779 199.015 24.779C199.015 24.779 195.017 25.3925 193.752 28.0102C190.733 27.1512 188.815 27.6012 187.061 28.9918Z" fill="#172541"/>
</g>
<defs>
<clipPath id="clip0">
<rect width="306" height="247" fill="white" transform="translate(0 -18)"/>
</clipPath>
</defs>
</svg>
