<?xml version="1.0" encoding="UTF-8"?>
<svg width="300px" height="100px" viewBox="0 0 300 100" version="1.1" xmlns="http://www.w3.org/2000/svg" xmlns:xlink="http://www.w3.org/1999/xlink">
    <title>LOGO Copy 4</title>
    <g id="CHARTE" stroke="none" stroke-width="1" fill="none" fill-rule="evenodd">
        <g id="05" transform="translate(-835.000000, -179.000000)">
            <g id="LOGO-Copy-4" transform="translate(835.000000, 179.000000)">
                <g id="icon">
                    <path d="M60.8673989,26.1106976 C81.2279875,26.1672543 87.8512424,29.0415912 87.8512424,38.3414029 C87.8512424,45.802281 83.8019459,50.5747242 75.3930833,52.0076929 C82.696261,52.0076929 89.3601486,57.8618208 87.8512424,71.4090904 C86.5350618,83.2260307 80.1937968,88.2790267 70.1026215,89.3770391 C70.1197351,89.606064 70.127999,89.8380648 70.127999,90.0719958 C70.127999,95.4402033 65.776207,99.7919953 60.4079995,99.7919953 C55.0397919,99.7919953 50.6879999,95.4402033 50.6879999,90.0719958 C50.6879999,89.9033769 50.6922935,89.7357607 50.7007774,89.5692508 C44.0400988,89.533207 37.2949761,89.4801242 31.2257991,89.4266782 C31.2409134,89.6403703 31.2480008,89.8553554 31.2480008,90.0719958 C31.2480008,95.4402033 26.8962088,99.7919953 21.5280013,99.7919953 C16.1597937,99.7919953 11.8080017,95.4402033 11.8080017,90.0719958 C11.8080017,89.7939871 11.8196732,89.5187044 11.8425529,89.246611 C10.8228776,89.2384217 10.0496565,89.233501 9.56208343,89.2327377 L9.23469656,89.2321626 C5.25173045,89.2132224 0.144002253,88.5979013 0.144002253,82.9439961 C0.144002253,80.1269315 2.23340508,77.0117112 6.55531559,76.8775981 L6.84675194,76.8731097 L20.988845,76.8731097 C24.9575284,76.8731097 27.360001,75.426184 27.360001,71.4090904 C27.360001,67.4723387 26.0931738,65.9614335 21.6031773,65.902572 L21.3242356,65.9007742 L9.16383805,65.9001514 C3.65791317,65.8743994 0.144002253,65.0244872 0.144002253,58.6262785 C0.144002253,52.2217129 8.4916633,52.0126589 11.3711711,52.0077942 L32.2693601,52.0076929 C35.69161,52.0076929 39.0246333,50.2408804 39.0246333,45.3599979 C39.0246333,42.7324173 36.2687529,40.0692576 33.5853016,39.9439301 L33.3891218,39.9393262 L8.50092374,39.9393262 C4.84833016,39.9393262 0.310558495,37.2944865 0.310558495,32.8404359 C0.310558495,28.4737197 4.12653204,26.1999559 8.25299163,26.1124675 L8.50092374,26.1098425 L60.8673989,26.1106976 Z M21.5280013,85.535996 C19.0228378,85.535996 16.9920015,87.5668323 16.9920015,90.0719958 C16.9920015,92.5771593 19.0228378,94.6079956 21.5280013,94.6079956 C24.0331648,94.6079956 26.0640011,92.5771593 26.0640011,90.0719958 C26.0640011,87.5668323 24.0331648,85.535996 21.5280013,85.535996 Z M60.4079995,85.535996 C57.902836,85.535996 55.8719997,87.5668323 55.8719997,90.0719958 C55.8719997,92.5771593 57.902836,94.6079956 60.4079995,94.6079956 C62.913163,94.6079956 64.9439992,92.5771593 64.9439992,90.0719958 C64.9439992,87.5668323 62.913163,85.535996 60.4079995,85.535996 Z" id="Combined-Shape" fill="#E62664"></path>
                    <path d="M58.8239645,21.525749 C49.319965,21.525749 44.5679652,17.5162492 44.5679652,9.49724956 C54.0719648,8.27971837 58.8239645,12.2892182 58.8239645,21.525749 Z" id="Path-4" fill="#39B549"></path>
                    <path d="M73.6615607,14.8451462 C61.8403352,16.2586081 55.9297224,12.9558393 55.9297224,4.93683964 C65.433722,3.71930844 71.3443347,7.02207728 73.6615607,14.8451462 Z" id="Path-4-Copy" fill="#39B549" transform="translate(64.795642, 9.926872) rotate(83.000000) translate(-64.795642, -9.926872) "></path>
                </g>
                <path d="M122.251839,85.1139978 C128.667039,85.1139978 133.573479,83.9972778 136.971159,81.7638379 C140.368838,79.530398 142.067678,76.1089582 142.067678,71.4995184 C142.067678,69.0284785 141.378638,66.9138386 140.000558,65.1555987 C138.622478,63.3973588 136.555359,62.0667988 133.799199,61.1639189 C135.985119,60.3085589 137.660199,59.108679 138.824438,57.564279 C139.988678,56.0198791 140.570798,54.1784792 140.570798,52.0400793 C140.570798,47.8583195 138.955118,44.7576396 135.723759,42.7380397 C132.492399,40.7184398 127.906719,39.7086399 121.966719,39.7086399 C119.495679,39.7086399 117.095919,39.8393199 114.76744,40.1006799 C112.43896,40.3620398 110.49064,40.7540798 108.92248,41.2767998 C107.97208,41.5619198 107.2474,41.9658398 106.74844,42.4885597 C106.24948,43.0112797 106,43.7478397 106,44.6982396 L106,44.6982396 L106,78.6275181 C106,80.955998 107.23552,82.5716779 109.70656,83.4745578 C110.60944,83.8071978 111.61924,84.0804378 112.73596,84.2942778 C113.85268,84.5081178 114.9694,84.6744378 116.08612,84.7932378 C117.202839,84.9120378 118.295799,84.9951978 119.364999,85.0427178 C120.434199,85.0902378 121.396479,85.1139978 122.251839,85.1139978 Z M123.463599,58.027599 L116.834559,58.027599 L116.834559,48.5473595 C117.452319,48.4523195 118.260159,48.3691595 119.258079,48.2978795 C120.255999,48.2265995 121.206399,48.1909595 122.109279,48.1909595 C124.532799,48.1909595 126.350439,48.6067595 127.562199,49.4383594 C128.773959,50.2699594 129.379839,51.4460793 129.379839,52.9667193 C129.379839,54.6299192 128.857119,55.8891991 127.811679,56.7445591 C126.766239,57.599919 125.316879,58.027599 123.463599,58.027599 L123.463599,58.027599 Z M122.964639,76.4891182 C121.919199,76.4891182 120.826239,76.4415982 119.685759,76.3465582 C118.545279,76.2515182 117.594879,76.1089582 116.834559,75.9188782 L116.834559,75.9188782 L116.834559,65.9396787 L124.176399,65.9396787 C128.500719,65.9396787 130.662879,67.6266386 130.662879,71.0005584 C130.662879,72.9013583 129.950079,74.2913183 128.524479,75.1704382 C127.098879,76.0495582 125.245599,76.4891182 122.964639,76.4891182 Z M165.518797,85.1139978 C168.274957,85.1139978 170.769757,84.6863178 173.003197,83.8309578 C175.236637,82.9755979 177.149317,81.7638379 178.741237,80.195678 C180.333157,78.6275181 181.556796,76.7148382 182.412156,74.4576383 C183.267516,72.2004384 183.695196,69.6699985 183.695196,66.8663186 C183.695196,64.1101587 183.255636,61.6153589 182.376516,59.381919 C181.497397,57.1484791 180.261877,55.2357992 178.669957,53.6438792 C177.078037,52.0519593 175.165357,50.8283194 172.931917,49.9729594 C170.698477,49.1175994 168.227437,48.6899195 165.518797,48.6899195 C162.810157,48.6899195 160.327237,49.1175994 158.070038,49.9729594 C155.812838,50.8283194 153.888278,52.0400793 152.296358,53.6082392 C150.704438,55.1763992 149.468918,57.0890791 148.589798,59.346279 C147.710678,61.6034789 147.271118,64.1101587 147.271118,66.8663186 C147.271118,69.7175185 147.698798,72.2717184 148.554158,74.5289183 C149.409518,76.7861182 150.633158,78.6987981 152.225078,80.266958 C153.816998,81.8351179 155.741558,83.0349979 157.998758,83.8665978 C160.255957,84.6981978 162.762637,85.1139978 165.518797,85.1139978 Z M165.518797,76.5603982 C163.237837,76.5603982 161.491477,75.7406782 160.279717,74.1012383 C159.067958,72.4617984 158.462078,70.0501585 158.462078,66.8663186 C158.462078,63.7775188 159.079838,61.4015189 160.315357,59.7383189 C161.550877,58.075119 163.285357,57.2435191 165.518797,57.2435191 C167.752237,57.2435191 169.486717,58.086999 170.722237,59.7739589 C171.957757,61.4609189 172.575517,63.8250388 172.575517,66.8663186 C172.575517,70.0026385 171.969637,72.4023984 170.757877,74.0655983 C169.546117,75.7287982 167.799757,76.5603982 165.518797,76.5603982 Z M216.840395,84.6150378 C218.646155,84.6150378 220.036115,84.0804378 221.010275,83.0112379 C221.984435,81.9420379 222.590315,80.409518 222.827915,78.4136781 L222.827915,78.4136781 L210.496475,66.4386386 L216.056315,61.6628789 C217.909595,60.0471989 219.275795,58.752279 220.154915,57.778119 C221.034035,56.8039591 221.473595,55.6753591 221.473595,54.3923192 C221.473595,52.9191993 220.808315,51.6836793 219.477755,50.6857594 C218.147195,49.6878394 216.365195,49.1888794 214.131755,49.1888794 L214.131755,49.1888794 L201.230076,62.3043988 L201.230076,42.1321598 C201.230076,40.1363199 200.766756,38.7819999 199.840116,38.0692 C198.913476,37.3564 197.380956,37 195.242556,37 C194.197116,37 193.246716,37.07128 192.391356,37.21384 C191.535996,37.3564 190.846956,37.49896 190.324236,37.64152 L190.324236,37.64152 L190.324236,79.482878 C190.324236,81.4787179 190.799436,82.8211579 191.749836,83.5101978 C192.700236,84.1992378 194.244636,84.5437578 196.383036,84.5437578 C197.428476,84.5437578 198.378876,84.4843578 199.234236,84.3655578 C200.089596,84.2467578 200.754876,84.1160778 201.230076,83.9735178 L201.230076,83.9735178 L201.230076,70.2877585 L209.712395,80.338238 C210.995435,81.8588779 212.159675,82.9518379 213.205115,83.6171178 C214.250555,84.2823978 215.462315,84.6150378 216.840395,84.6150378 Z M243.071434,85.1852778 C245.780074,85.1852778 248.203593,84.9476778 250.341993,84.4724778 C252.480393,83.9972778 254.286153,83.3082379 255.759273,82.4053579 C256.662153,81.8826379 257.434353,81.2529979 258.075873,80.516438 C258.717393,79.779878 259.038153,78.7938381 259.038153,77.5583181 L259.038153,77.5583181 L259.038153,61.4490389 C259.038153,59.263119 258.646113,57.3623191 257.862033,55.7466391 C257.077953,54.1309592 255.973113,52.8003993 254.547513,51.7549593 C253.121913,50.7095194 251.399313,49.9373194 249.379713,49.4383594 C247.360113,48.9393994 245.114794,48.6899195 242.643754,48.6899195 C240.885514,48.6899195 239.091634,48.8205995 237.262114,49.0819594 C235.432594,49.3433194 233.828794,49.7353594 232.450714,50.2580794 C230.264794,51.1609593 229.171834,52.6578393 229.171834,54.7487192 C229.171834,55.6515991 229.373794,56.4950791 229.777714,57.2791591 C230.181634,58.063239 230.668714,58.645359 231.238954,59.025519 C232.617034,58.455279 234.173314,57.956319 235.907794,57.528639 C237.642274,57.1009591 239.412394,56.8871191 241.218154,56.8871191 C243.546634,56.8871191 245.328634,57.2435191 246.564153,57.956319 C247.799673,58.669119 248.417433,59.7858389 248.417433,61.3064789 L248.417433,61.3064789 L248.417433,62.0905588 L238.937194,63.0884788 C234.897994,63.5161588 231.904234,64.5853587 229.955914,66.2960786 C228.007594,68.0067986 227.033434,70.5015984 227.033434,73.7804783 C227.033434,77.6295981 228.482794,80.492678 231.381514,82.3697179 C234.280234,84.2467578 238.176874,85.1852778 243.071434,85.1852778 Z M243.071434,77.1306381 C241.123114,77.1306381 239.721274,76.7979982 238.865914,76.1327182 C238.010554,75.4674382 237.582874,74.5645583 237.582874,73.4240783 C237.582874,72.3311184 238.046194,71.5113984 238.972834,70.9649184 C239.899474,70.4184385 241.123114,70.0739185 242.643754,69.9313585 L242.643754,69.9313585 L248.488713,69.4323985 L248.488713,75.9901582 C247.965993,76.3227982 247.193793,76.5960382 246.172114,76.8098782 C245.150434,77.0237181 244.116874,77.1306381 243.071434,77.1306381 Z M275.575112,97.5167172 C277.761032,97.5167172 279.923192,96.4118772 282.061592,94.2021973 C284.199992,91.9925175 286.599752,88.6304776 289.260872,84.1160778 C290.543911,81.9776779 291.791311,79.494758 293.003071,76.6673182 C294.214831,73.8398783 295.307791,70.9886784 296.281951,68.1137186 C297.256111,65.2387587 298.040191,62.4825988 298.634191,59.8452389 C299.228191,57.2078791 299.525191,55.0338392 299.525191,53.3231192 C299.525191,51.8024793 298.978711,50.7095194 297.885751,50.0442394 C296.792791,49.3789594 295.485991,49.0463194 293.965351,49.0463194 C292.349671,49.0463194 290.805271,49.4502394 289.332152,50.2580794 C288.951992,52.2539193 288.512432,54.3091592 288.013472,56.4237991 C287.514512,58.538439 286.979912,60.6293189 286.409672,62.6964388 C285.839432,64.7635587 285.245432,66.7593986 284.627672,68.6839585 C284.009912,70.6085184 283.415912,72.3786384 282.845672,73.9943183 L282.845672,73.9943183 L282.560552,73.9943183 C281.467592,70.5728784 280.386512,67.1751986 279.317312,63.8012788 C278.248112,60.4273589 277.190792,57.0059191 276.145352,53.5369592 C275.622632,51.8262393 274.886072,50.6501194 273.935672,50.0085994 C272.985272,49.3670794 271.749752,49.0463194 270.229112,49.0463194 C269.041112,49.0463194 267.936272,49.2720394 266.914593,49.7234794 C265.892913,50.1749194 265.096953,50.7095194 264.526713,51.3272793 C266.047353,57.4098391 267.508593,62.3637988 268.910432,66.1891586 C270.312272,70.0145185 271.559672,73.1151983 272.652632,75.4911982 C273.698072,77.7721581 274.660352,79.328438 275.539472,80.160038 C276.418592,80.991638 277.262072,81.5262379 278.069912,81.7638379 C276.929432,83.5695978 275.539472,85.3634778 273.900032,87.1454777 C272.260592,88.9274776 270.680552,90.4837575 269.159912,91.8143175 C269.397512,93.4775174 270.086552,94.8437173 271.227032,95.9129173 C272.367512,96.9821172 273.816872,97.5167172 275.575112,97.5167172 Z" id="Bokay" fill="#061A30" fill-rule="nonzero"></path>
            </g>
        </g>
    </g>
</svg>