<svg width="10" height="10" viewBox="0 0 10 10" fill="none" xmlns="http://www.w3.org/2000/svg">
<path d="M9.78261 3.91304H6.08696V0.217391C6.08696 0.0869565 6 0 5.86957 0H4.13043C4 0 3.91304 0.0869565 3.91304 0.217391V3.91304H0.217391C0.0869565 3.91304 0 4 0 4.13043V5.86957C0 6 0.0869565 6.08696 0.217391 6.08696H3.91304V9.78261C3.91304 9.91304 4 10 4.13043 10H5.86957C6 10 6.08696 9.91304 6.08696 9.78261V6.08696H9.78261C9.91304 6.08696 10 6 10 5.86957V4.13043C10 4 9.91304 3.91304 9.78261 3.91304Z" fill="white"/>
</svg>
