<svg width="18" height="18" viewBox="0 0 18 18" fill="none" xmlns="http://www.w3.org/2000/svg">
<path d="M8.50909 3.27274L17.7545 12.5182C17.9182 12.6818 18 12.8455 18 13.0909V17.1818C18 17.6727 17.6727 18 17.1818 18H13.0909C12.8455 18 12.6818 17.9182 12.5182 17.7546L3.27273 8.50909L8.50909 3.27274Z" fill="#F70C5C"/>
<path d="M0.24547 4.33636L4.33638 0.245455C4.66365 -0.0818182 5.15455 -0.0818182 5.48183 0.245455L7.36365 2.12729L2.12729 7.36365L0.24547 5.48184C-0.0818028 5.15457 -0.0818028 4.66364 0.24547 4.33636Z" fill="#F70C5C"/>
</svg>
