<svg width="8" height="14" viewBox="0 0 8 14" fill="none" xmlns="http://www.w3.org/2000/svg">
<g clip-path="url(#clip0)">
<path d="M0.666677 13.3636L7.33334 7L0.666678 0.636367" stroke="#F70C5C" stroke-width="2" stroke-miterlimit="10" stroke-linecap="round" stroke-linejoin="round"/>
</g>
<defs>
<clipPath id="clip0">
<rect width="8" height="14" fill="white" transform="translate(8 14) rotate(-180)"/>
</clipPath>
</defs>
</svg>
