<svg width="11" height="2" viewBox="0 0 11 2" fill="none" xmlns="http://www.w3.org/2000/svg">
<path fill-rule="evenodd" clip-rule="evenodd" d="M9.37979 0.815333C9.61071 0.815333 9.79791 1.00253 9.79791 1.23345C9.79791 1.46437 9.61071 1.65157 9.37979 1.65157L1.01742 1.65157C0.786505 1.65157 0.599306 1.46437 0.599306 1.23345C0.599306 1.00253 0.786504 0.815333 1.01742 0.815333L9.37979 0.815333Z" fill="#222222" stroke="#222222" stroke-width="0.5"/>
</svg>
