<svg width="95" height="95" viewBox="0 0 95 95" fill="none" xmlns="http://www.w3.org/2000/svg">
<g clip-path="url(#clip0)">
<path d="M79.2872 14.4843C80.0178 14.1197 80.9042 14.4161 81.268 15.146L82.7546 18.1235L84.0628 12.7252C84.2549 11.9323 85.0529 11.4445 85.8458 11.638C86.6388 11.8301 87.1251 12.6281 86.933 13.421L85.6248 18.8193L88.3087 16.8529C88.9668 16.3709 89.8909 16.5137 90.3729 17.1718C90.8549 17.8299 90.7121 18.7533 90.054 19.236L84.11 23.5898C84.0991 23.5978 84.0875 23.6029 84.0766 23.6101C84.036 23.6384 83.994 23.6623 83.9512 23.6862C83.923 23.7022 83.8954 23.7189 83.8671 23.7319C83.8258 23.7515 83.7823 23.7674 83.7396 23.7826C83.7077 23.7942 83.6765 23.8073 83.6446 23.8167C83.6026 23.829 83.5598 23.8363 83.5163 23.8442C83.4823 23.8508 83.4482 23.8602 83.4142 23.8638C83.4105 23.8645 83.4069 23.8653 83.4033 23.866C83.3352 23.874 83.267 23.8754 83.1996 23.874C83.1953 23.8732 83.1909 23.8747 83.1873 23.8747L83.1858 23.8747C83.1837 23.8747 83.1815 23.874 83.18 23.874C83.1206 23.8711 83.0619 23.8653 83.0039 23.8558C82.9836 23.8522 82.9641 23.8479 82.9438 23.8435C82.9039 23.8356 82.864 23.8261 82.8242 23.8145C82.8032 23.8087 82.7829 23.8015 82.7626 23.795C82.7234 23.7812 82.6843 23.7667 82.6466 23.75C82.6285 23.7421 82.6104 23.7341 82.593 23.7261C82.5509 23.7058 82.5103 23.6826 82.4705 23.6587C82.4582 23.6515 82.4451 23.6442 82.4335 23.637C82.3306 23.5696 82.2342 23.4898 82.1487 23.3963C82.1363 23.3826 82.1247 23.3666 82.1124 23.3521C82.09 23.326 82.0668 23.2999 82.0457 23.2717C82.0399 23.2644 82.0363 23.2564 82.0305 23.2485C82.0204 23.234 82.011 23.2195 82.0015 23.2043C81.9754 23.1644 81.9522 23.1238 81.9305 23.0825C81.9254 23.0745 81.9204 23.0673 81.916 23.0586L78.6254 16.4659C78.2616 15.7353 78.558 14.8481 79.2872 14.4843Z" fill="#80CF00"/>
<path d="M7.79295 18.0582L24.0805 18.0582C24.6944 18.0582 25.1923 17.561 25.1923 16.9471L25.1923 6.8638C25.1923 6.2499 24.6944 5.75197 24.0805 5.75197L7.79295 5.75197C7.17905 5.75197 6.68112 6.2499 6.68112 6.8638L6.68112 16.9471C6.68112 17.561 7.17905 18.0582 7.79295 18.0582Z" fill="#F5D573"/>
<path d="M7.79301 18.0582L12.7136 18.0582L12.7136 5.75197L7.79301 5.75197C7.17911 5.75197 6.68118 6.2499 6.68118 6.8638L6.68117 16.9471C6.68117 17.561 7.17911 18.0582 7.79301 18.0582Z" fill="#F3CC50"/>
<path d="M9.11139 25.6606L9.11139 18.0582L22.9593 18.0582L22.9593 25.6599C22.9593 26.9935 23.4405 28.2814 24.3154 29.2874L28.862 34.5175C29.7368 35.5236 30.2181 36.8115 30.2181 38.1451L30.2181 45.3445L1.85259 45.3445L1.85259 38.1451C1.85259 36.8115 2.33385 35.5236 3.20868 34.5175L7.7553 29.2874C8.6294 28.2814 9.11139 26.9935 9.11139 25.6606Z" fill="#F72C2C"/>
<path d="M1.85259 38.1458L1.85259 45.3452L6.68188 45.3452L6.68188 38.1458C6.68188 36.8122 7.16242 35.5243 8.03869 34.5175L12.5846 29.2882C13.4594 28.2821 13.9414 26.9942 13.9414 25.6606L13.9414 18.0589L9.11211 18.0589L9.11211 25.6606C9.11211 26.9942 8.63013 28.2821 7.7553 29.2882L3.2094 34.5175C2.33313 35.5243 1.85259 36.8115 1.85259 38.1458Z" fill="#E32929"/>
<path d="M34.158 29.2461L63.8114 29.2461L66.9896 34.0551C67.4869 34.8075 67.7514 35.6881 67.7514 36.589L67.7514 45.3003L30.218 45.3003L30.218 36.589C30.218 35.6881 30.4826 34.8067 30.9798 34.0551L34.158 29.2461Z" fill="#8E2D2A"/>
<path d="M30.2181 36.5897L30.2181 45.301L35.1931 45.301L35.1931 36.5897C35.1931 35.6888 35.4576 34.8075 35.9548 34.0558L39.1323 29.2461L34.1581 29.2461L30.9799 34.0558C30.4834 34.8075 30.2181 35.6888 30.2181 36.5897Z" fill="#771F1F"/>
<path d="M32.7606 29.2461L65.2088 29.2461C65.8387 29.2461 66.3489 28.7351 66.3489 28.106L66.3489 22.7679C66.3489 22.1381 65.8387 21.6278 65.2088 21.6278L32.7606 21.6278C32.1308 21.6278 31.6205 22.1381 31.6205 22.7679L31.6205 28.106C31.6205 28.7351 32.1308 29.2461 32.7606 29.2461Z" fill="#EFE2DD"/>
<path d="M32.7606 29.2461L36.9108 29.2461L36.9108 21.6278L32.7606 21.6278C32.1308 21.6278 31.6205 22.1381 31.6205 22.7679L31.6205 28.106C31.6205 28.7351 32.1308 29.2461 32.7606 29.2461Z" fill="#E1D3CE"/>
<path d="M36.9107 45.3003L61.0587 45.3003L61.0587 37.587C61.0587 37.0587 60.6303 36.6303 60.1019 36.6303L37.8675 36.6303C37.3391 36.6303 36.9107 37.0587 36.9107 37.587L36.9107 45.3003Z" fill="#C9F0FF"/>
<path d="M36.9108 45.3003L41.685 45.3003L41.685 36.6296L37.8675 36.6296C37.3391 36.6296 36.9108 37.0579 36.9108 37.5863L36.9108 45.3003Z" fill="#9AE7FD"/>
<path d="M69.5381 28.43C70.626 24.495 73.997 21.5923 78.0559 21.1487C80.56 20.8747 82.6054 21.2958 82.6054 21.2958C82.6054 21.2958 84.6507 21.7162 86.8432 22.957C90.3962 24.9683 92.3473 28.9663 91.7921 33.0106C91.3485 36.2396 90.1657 41.9416 87.0223 48.3458L77.4427 46.3737L67.8631 44.4022C67.5043 37.2768 68.6705 31.5712 69.5381 28.43Z" fill="#F78E3C"/>
<path d="M67.8623 44.4023L72.3299 45.3228C72.0813 38.2887 73.2374 32.6657 74.1079 29.5179C75.2385 25.4214 78.748 22.4019 82.9706 21.9388C83.4816 21.8837 83.973 21.8547 84.4347 21.8475C83.3555 21.451 82.6053 21.2959 82.6053 21.2959C82.6053 21.2959 80.56 20.8755 78.0551 21.1488C73.997 21.5923 70.6259 24.4951 69.5388 28.4293C68.6697 31.5713 67.5043 37.2768 67.8623 44.4023Z" fill="#E8782D"/>
<path d="M47.5 51.6792L89.4031 51.6792L84.0969 82.2371C83.404 86.23 79.9381 89.1459 75.885 89.1459L19.1149 89.1459C15.0619 89.1459 11.5959 86.2307 10.903 82.2371L5.59684 51.6792L47.5 51.6792Z" fill="#FFC143"/>
<path d="M5.59686 51.6792L10.9031 82.2379C11.5952 86.2307 15.0627 89.1451 19.115 89.1451L24.9698 89.1451C20.9175 89.1451 17.4508 86.2315 16.7579 82.2379L11.4517 51.6792L5.59686 51.6792Z" fill="#FFB509"/>
<path d="M0.956733 51.6792L94.0433 51.6792C94.5716 51.6792 95 51.2508 95 50.7225L95 43.2984C95 42.77 94.5716 42.3417 94.0433 42.3417L0.956734 42.3417C0.42836 42.3417 7.59195e-06 42.77 7.54575e-06 43.2984L6.89672e-06 50.7224C6.85053e-06 51.2508 0.428359 51.6792 0.956733 51.6792Z" fill="#F9EFEF"/>
<path d="M0.956741 51.6792L5.59686 51.6792L5.59686 42.3417L0.956741 42.3417C0.428368 42.3417 1.52213e-05 42.77 1.51751e-05 43.2984L1.45261e-05 50.7224C1.44799e-05 51.2508 0.428367 51.6792 0.956741 51.6792Z" fill="#EFE2DD"/>
<path d="M86.5851 32.4714C86.4895 32.4714 86.3916 32.462 86.2945 32.4417L82.1987 31.5988C81.4224 31.4386 80.923 30.6797 81.0825 29.9035C81.242 29.1272 82.0008 28.6279 82.7778 28.7873L86.8729 29.631C87.6491 29.7904 88.1492 30.5493 87.9891 31.3255C87.8492 32.0039 87.2519 32.4714 86.5851 32.4714Z" fill="#838383"/>
<path d="M77.1947 37.621C77.099 37.621 77.0012 37.6116 76.9041 37.5913L72.8083 36.7484C72.032 36.5882 71.5326 35.8294 71.6921 35.0538C71.8523 34.2769 72.6111 33.7767 73.3874 33.9369L77.4832 34.7806C78.2594 34.94 78.7588 35.6989 78.5994 36.4751C78.4595 37.1536 77.8615 37.621 77.1947 37.621Z" fill="#838383"/>
<path d="M71.7016 81.5247C71.6124 81.5247 71.5218 81.516 71.4312 81.4986C70.6521 81.35 70.1418 80.5992 70.2904 79.8207L73.9781 60.4956C74.1267 59.7164 74.8791 59.2054 75.6568 59.3547C76.4352 59.5033 76.9454 60.2549 76.7968 61.0334L73.1098 80.3585C72.9779 81.0464 72.3763 81.5247 71.7016 81.5247Z" fill="#F9EFEF"/>
<path d="M55.7989 81.5239C55.759 81.5239 55.7184 81.5225 55.6778 81.5196C54.8878 81.4536 54.3014 80.76 54.3674 79.97L55.9808 60.6449C56.0467 59.8548 56.7397 59.2663 57.5304 59.3344C58.3197 59.4004 58.9068 60.094 58.8408 60.884L57.2274 80.2085C57.1651 80.9579 56.5374 81.5239 55.7989 81.5239Z" fill="#F9EFEF"/>
<path d="M23.2985 81.5247C22.6238 81.5247 22.0222 81.0456 21.8903 80.3585L18.2032 61.0334C18.0547 60.2549 18.5649 59.5033 19.3433 59.3547C20.1218 59.2054 20.8734 59.7171 21.022 60.4956L24.7097 79.8207C24.8583 80.5991 24.3473 81.3507 23.5689 81.4986C23.4783 81.516 23.3877 81.5247 23.2985 81.5247Z" fill="#F9EFEF"/>
<path d="M39.2011 81.524C38.4626 81.524 37.8349 80.9579 37.7726 80.2085L36.1592 60.8833C36.0932 60.0933 36.6803 59.3997 37.4696 59.3344C38.2596 59.2656 38.9532 59.8556 39.0192 60.6449L40.6326 79.97C40.6985 80.76 40.1122 81.4536 39.3222 81.5189C39.2816 81.5225 39.241 81.524 39.2011 81.524Z" fill="#F9EFEF"/>
</g>
<defs>
<clipPath id="clip0">
<rect width="95" height="95" fill="white" transform="matrix(-1 -8.74228e-08 -8.74228e-08 1 95 1.52588e-05)"/>
</clipPath>
</defs>
</svg>
