<svg width="37" height="37" viewBox="0 0 37 37" fill="none" xmlns="http://www.w3.org/2000/svg">
<g clip-path="url(#clip0)">
<path d="M18.866 12.5843L17.0315 14.1386L12.8755 9.23295C12.5633 8.86439 12.6089 8.31257 12.9775 8.00039L13.4775 7.57676C13.846 7.26458 14.3978 7.31018 14.71 7.67873L18.866 12.5843Z" fill="#FF4C4C"/>
<path d="M28.8916 12.5843L30.7261 14.1386L34.8821 9.23295C35.1943 8.86439 35.1487 8.31257 34.7802 8.00039L34.2802 7.57676C33.9116 7.26458 33.3598 7.31018 33.0476 7.67873L28.8916 12.5843Z" fill="#FF4C4C"/>
<path d="M25.0535 4.96819H22.7037V9.9392H25.0535V4.96819Z" fill="#CCDFED"/>
<path d="M23.8787 34.2176C31.1254 34.2176 37 28.343 37 21.0964C37 13.8497 31.1254 7.97508 23.8787 7.97508C16.632 7.97508 10.7574 13.8497 10.7574 21.0964C10.7574 28.343 16.632 34.2176 23.8787 34.2176Z" fill="#3D6687"/>
<path d="M23.8789 7.97502C23.1856 7.97502 22.505 8.02922 21.8407 8.13285C28.1194 9.11212 32.9237 14.5429 32.9237 21.0962C32.9237 27.6495 28.1194 33.0803 21.8407 34.0596C22.505 34.1632 23.1856 34.2174 23.8789 34.2174C31.1255 34.2175 37.0001 28.3428 37.0001 21.0963C37.0001 13.8498 31.1255 7.97502 23.8789 7.97502Z" fill="#0C5177"/>
<path d="M23.8788 32.2535C30.0407 32.2535 35.0359 27.2583 35.0359 21.0964C35.0359 14.9345 30.0407 9.93927 23.8788 9.93927C17.7169 9.93927 12.7217 14.9345 12.7217 21.0964C12.7217 27.2583 17.7169 32.2535 23.8788 32.2535Z" fill="#E1EFFB"/>
<path d="M23.8788 9.9389C23.1771 9.9389 22.4907 10.0044 21.8248 10.1283C27.0056 11.0926 30.9282 15.636 30.9282 21.0963C30.9282 26.5566 27.0056 31.1001 21.8248 32.0643C22.4907 32.1882 23.1771 32.2537 23.8788 32.2537C30.0409 32.2537 35.0362 27.2584 35.0362 21.0963C35.0362 14.9342 30.0409 9.9389 23.8788 9.9389Z" fill="#CCDFED"/>
<path d="M27.1564 5.67509H20.6012C20.2657 5.67509 19.9937 5.40308 19.9937 5.06755V3.3899C19.9937 3.05437 20.2657 2.78236 20.6012 2.78236H27.1564C27.4919 2.78236 27.7639 3.05437 27.7639 3.3899V5.06769C27.7639 5.40315 27.4919 5.67509 27.1564 5.67509Z" fill="#FF4C4C"/>
<path d="M23.8788 22.8031C24.8214 22.8031 25.5855 22.039 25.5855 21.0964C25.5855 20.1537 24.8214 19.3896 23.8788 19.3896C22.9361 19.3896 22.172 20.1537 22.172 21.0964C22.172 22.039 22.9361 22.8031 23.8788 22.8031Z" fill="#3D6687"/>
<path d="M24.116 12.0515C23.9863 12.0482 23.8788 12.1514 23.8788 12.2811V16.6961C23.8788 16.87 24.0099 17.0174 24.183 17.0343C26.1682 17.2286 27.7464 18.8068 27.9407 20.792C27.9577 20.9651 28.105 21.0962 28.2789 21.0962H32.6939C32.8236 21.0962 32.9268 20.9887 32.9235 20.859C32.7997 16.0506 28.9244 12.1753 24.116 12.0515Z" fill="#FF6D3A"/>
<path d="M23.3221 28.7908V30.1439C23.3221 30.4514 23.5713 30.7006 23.8788 30.7006C24.1863 30.7006 24.4355 30.4514 24.4355 30.1439V28.7908C24.4355 28.4833 24.1863 28.2341 23.8788 28.2341C23.5713 28.2341 23.3221 28.4833 23.3221 28.7908Z" fill="#FF4C4C"/>
<path d="M16.7408 21.0963C16.7408 20.7888 16.4917 20.5396 16.1842 20.5396H14.8311C14.5236 20.5396 14.2744 20.7888 14.2744 21.0963C14.2744 21.4038 14.5236 21.653 14.8311 21.653H16.1842C16.4916 21.653 16.7408 21.4038 16.7408 21.0963Z" fill="#FF4C4C"/>
<path d="M11.71 13.7458H7.27072C6.96691 13.7458 6.7207 13.4996 6.7207 13.1958C6.7207 12.892 6.96691 12.6458 7.27072 12.6458H11.71C12.0138 12.6458 12.26 12.892 12.26 13.1958C12.26 13.4996 12.0138 13.7458 11.71 13.7458Z" fill="#0C5177"/>
<path d="M9.49028 20.6886H7.02841C6.7246 20.6886 6.47839 20.4424 6.47839 20.1386C6.47839 19.8348 6.7246 19.5885 7.02841 19.5885H9.49028C9.79408 19.5885 10.0403 19.8347 10.0403 20.1386C10.0403 20.4424 9.79408 20.6886 9.49028 20.6886Z" fill="#0C5177"/>
<path d="M10.7576 27.6314H8.61068C8.30688 27.6314 8.06067 27.3852 8.06067 27.0813C8.06067 26.7774 8.30688 26.5313 8.61068 26.5313H10.7576C11.0614 26.5313 11.3076 26.7775 11.3076 27.0813C11.3076 27.3851 11.0614 27.6314 10.7576 27.6314Z" fill="#0C5177"/>
<path d="M10.0166 17.2172H3.36141C3.05761 17.2172 2.8114 16.971 2.8114 16.6672C2.8114 16.3634 3.05761 16.1172 3.36141 16.1172H10.0165C10.3203 16.1172 10.5665 16.3634 10.5665 16.6672C10.5665 16.971 10.3204 17.2172 10.0166 17.2172Z" fill="#0C5177"/>
<path d="M9.65375 24.1601H0.550014C0.246209 24.1601 0 23.9139 0 23.6101C0 23.3062 0.246209 23.06 0.550014 23.06H9.65368C9.95748 23.06 10.2037 23.3062 10.2037 23.6101C10.2037 23.9139 9.95755 24.1601 9.65375 24.1601Z" fill="#0C5177"/>
<path d="M12.7214 30.7606H5.80465C5.50085 30.7606 5.25464 30.5144 5.25464 30.2105C5.25464 29.9066 5.50085 29.6604 5.80465 29.6604H12.7214C13.0252 29.6604 13.2714 29.9066 13.2714 30.2105C13.2714 30.5144 13.0252 30.7606 12.7214 30.7606Z" fill="#0C5177"/>
</g>
<defs>
<clipPath id="clip0">
<rect width="37" height="37" fill="white"/>
</clipPath>
</defs>
</svg>
