<svg width="25" height="26" viewBox="0 0 25 26" fill="none" xmlns="http://www.w3.org/2000/svg">
<g clip-path="url(#clip0)">
<path d="M9.23992 0C11.8931 0 14.0545 2.14297 14.0545 4.77344V14.2289H12.3233V4.77344C12.3233 3.0875 10.9404 1.71641 9.23992 1.71641C7.53945 1.71641 6.15653 3.0875 6.15653 4.77344V9.08984H4.42533V4.77344C4.43045 2.14297 6.58677 0 9.23992 0Z" fill="#A2B1B7"/>
<path d="M4.14362 7.9422H6.44847V22.5723H4.14362V7.9422Z" fill="#C4D3D9"/>
<path d="M18.6591 0C19.1354 0 19.5247 0.385937 19.5247 0.858203V7.37344H17.7935V0.858203C17.7935 0.385937 18.1828 0 18.6591 0Z" fill="#A2B1B7"/>
<path d="M17.2198 6.23083H20.1035V9.25232H17.2198V6.23083Z" fill="#C4D3D9"/>
<path d="M16.3542 8.37384H18.6591L14.0494 24.2887H12.3182V14.234C12.3182 11.5629 13.993 9.2879 16.3542 8.37384Z" fill="#ED6350"/>
<path d="M16.3542 8.78517L20.9639 8.37384C23.3251 9.2879 25 11.5629 25 14.2289V24.2836H14.0494V14.2289C14.0494 11.9031 14.9764 9.87189 16.3542 8.78517Z" fill="#F37C4A"/>
<path d="M23.8476 20.8559C24.4827 20.8559 25 21.3688 25 21.9984V24.8574C25 25.4871 24.4827 26 23.8476 26C23.2125 26 22.6951 25.4871 22.6951 24.8574V21.9984C22.6951 21.3688 23.2125 20.8559 23.8476 20.8559Z" fill="#414D53"/>
<path d="M13.4706 20.8559C14.1057 20.8559 14.623 21.3688 14.623 21.9984V24.8574C14.623 25.4871 14.1057 26 13.4706 26C12.8355 26 12.3182 25.4871 12.3182 24.8574V21.9984C12.3182 21.3688 12.8355 20.8559 13.4706 20.8559Z" fill="#414D53"/>
<path d="M16.3542 8.37383V10.2324C16.3542 10.8621 16.8715 11.375 17.5067 11.375H19.8115C20.4466 11.375 20.9639 10.8621 20.9639 10.2324V8.37383C20.2469 8.09961 19.4735 7.94727 18.6591 7.94727C17.8447 7.94727 17.0713 8.09453 16.3542 8.37383Z" fill="#FBCFA3"/>
<path d="M3.85167 22.5723H5.58287V25.4312L2.12559 24.2887C2.12559 23.3441 2.90412 22.5723 3.85167 22.5723Z" fill="#748993"/>
<path d="M3.85167 24.2836L6.15652 25.4262L8.46138 24.2836C8.46138 23.3391 7.68285 22.5672 6.73018 22.5672H5.57775C4.63019 22.5723 3.85167 23.3442 3.85167 24.2836Z" fill="#A2B1B7"/>
<path d="M1.72609 24.2836L3.45729 25.1418L1.72609 26H5.72205e-06V24.2836H1.72609Z" fill="#414D53"/>
<path d="M1.72609 24.2836H10.5921V26H1.72609V24.2836Z" fill="#57676E"/>
<path d="M16.3542 21.2875H20.9639C21.2047 21.2875 21.3942 21.0945 21.3942 20.8609C21.3942 20.6223 21.1995 20.4344 20.9639 20.4344H16.3542C16.1135 20.4344 15.924 20.6274 15.924 20.8609C15.924 21.0945 16.1135 21.2875 16.3542 21.2875Z" fill="#E64A55"/>
<path d="M16.3542 19.5711H20.9639C21.2047 19.5711 21.3942 19.3781 21.3942 19.1445C21.3942 18.9109 21.1995 18.718 20.9639 18.718H16.3542C16.1135 18.718 15.924 18.9109 15.924 19.1445C15.924 19.3781 16.1135 19.5711 16.3542 19.5711Z" fill="#E64A55"/>
<path d="M16.3542 17.8547H20.9639C21.2047 17.8547 21.3942 17.6617 21.3942 17.4281C21.3942 17.1945 21.1995 17.0016 20.9639 17.0016H16.3542C16.1135 17.0016 15.924 17.1945 15.924 17.4281C15.924 17.6617 16.1135 17.8547 16.3542 17.8547Z" fill="#E64A55"/>
</g>
<defs>
<clipPath id="clip0">
<rect width="25" height="26" fill="white" transform="matrix(-1 0 0 1 25 0)"/>
</clipPath>
</defs>
</svg>
