<svg width="16" height="15" viewBox="0 0 16 15" fill="none" xmlns="http://www.w3.org/2000/svg">
<g clip-path="url(#clip0)">
<path d="M8.5164 0.31396L10.6764 4.61397L15.5055 5.29966C15.9782 5.37109 16.1673 5.94254 15.8255 6.26397L12.3346 9.60682L13.1564 14.3282C13.2364 14.7925 12.7419 15.1425 12.32 14.9283L8.00004 12.7068L3.68004 14.9354C3.25822 15.1568 2.76368 14.7997 2.84368 14.3354L3.66549 9.61397L0.174585 6.27112C-0.167233 5.94255 0.0218583 5.3711 0.494586 5.30681L5.32368 4.62108L7.48368 0.32111C7.69459 -0.107462 8.30549 -0.107469 8.5164 0.31396Z" fill="#FFD902"/>
</g>
<defs>
<clipPath id="clip0">
<rect width="16" height="15" fill="white"/>
</clipPath>
</defs>
</svg>
