<svg width="14" height="18" viewBox="0 0 14 18" fill="none" xmlns="http://www.w3.org/2000/svg">
<g clip-path="url(#clip0)">
<path d="M13.5882 6.88878C13.5882 10.8924 6.99998 17.4246 6.99998 17.4246C6.99998 17.4246 0.411743 10.8924 0.411743 6.88878C0.411743 2.78792 3.81292 0.405212 6.99998 0.405212C10.187 0.405212 13.5882 2.78792 13.5882 6.88878Z" stroke="#C5F3FF" stroke-miterlimit="10" stroke-linecap="square"/>
<path d="M7.00001 9.32013C8.36448 9.32013 9.4706 8.23159 9.4706 6.8888C9.4706 5.54601 8.36448 4.45746 7.00001 4.45746C5.63554 4.45746 4.52942 5.54601 4.52942 6.8888C4.52942 8.23159 5.63554 9.32013 7.00001 9.32013Z" stroke="#C5F3FF" stroke-miterlimit="10" stroke-linecap="square"/>
</g>
<defs>
<clipPath id="clip0">
<rect width="14" height="18" fill="white"/>
</clipPath>
</defs>
</svg>
