<svg width="23" height="23" viewBox="0 0 23 23" fill="none" xmlns="http://www.w3.org/2000/svg">
<path d="M22.5 13.5V9.5H19.24C19.05 8.77 18.76 8.08 18.39 7.44L20.7 5.13L17.87 2.29999L15.56 4.60999C14.92 4.22999 14.23 3.95001 13.5 3.76001V0.5H9.5V3.76001C8.77 3.95001 8.08 4.23999 7.44 4.60999L5.13 2.29999L2.3 5.13L4.61 7.44C4.23 8.08 3.94999 8.77 3.75999 9.5H0.5V13.5H3.75999C3.94999 14.23 4.24 14.92 4.61 15.56L2.3 17.87L5.13 20.7L7.44 18.39C8.07 18.77 8.77 19.05 9.5 19.24V22.5H13.5V19.24C14.23 19.05 14.92 18.76 15.56 18.39L17.87 20.7L20.7 17.87L18.39 15.56C18.77 14.92 19.05 14.23 19.24 13.5H22.5Z" stroke="#F70C5C" stroke-miterlimit="10" stroke-linecap="square"/>
<path d="M11.5 14.5C13.1569 14.5 14.5 13.1569 14.5 11.5C14.5 9.84315 13.1569 8.5 11.5 8.5C9.84315 8.5 8.5 9.84315 8.5 11.5C8.5 13.1569 9.84315 14.5 11.5 14.5Z" stroke="#F70C5C" stroke-miterlimit="10" stroke-linecap="square"/>
</svg>
