<?xml version="1.0" encoding="UTF-8"?>
<svg width="40px" height="56px" viewBox="0 0 40 56" version="1.1" xmlns="http://www.w3.org/2000/svg" xmlns:xlink="http://www.w3.org/1999/xlink">
    <title>famille-bienetre@1x</title>
    <g id="CHARTE" stroke="none" stroke-width="1" fill="none" fill-rule="evenodd">
        <g id="06" transform="translate(-678.000000, -227.000000)">
            <g id="CATEGORIES-1" transform="translate(534.000000, 219.000000)">
                <g id="wellbeing" transform="translate(123.000000, 0.000000)">
                    <g id="famille-bienetre" transform="translate(21.000000, 8.000000)">
                        <circle id="Oval" fill="#01BFF3" cx="34.5" cy="10.5" r="5.5"></circle>
                        <path d="M11.0750004,25.3362498 C11.678191,26.9595323 11.0037152,28.2835376 9.05157296,29.3082659 C6.12335956,30.8453582 3.21000005,32.03025 3.21000005,36.7341252 C3.21000005,39.870042 3.21000005,45.9586669 3.21000005,55 C3.21000005,55.49711 4.18111989,55.7880541 6.12335956,55.8728325 C8.06559923,55.9576108 13.5525322,55.9576108 22.5841584,55.8728325 C24.5593711,54.9752601 25.5469775,53.9187281 25.5469775,52.7032364 C25.5469775,51.4877448 25.5469775,45.1966658 25.5469775,33.8299996 C26.0756594,31.6876877 24.5600003,30.1804431 21,29.3082659 C17.4399997,28.4360886 15.8458333,27.1120833 16.2175006,25.3362498 L11.0750004,25.3362498 Z" id="Path-11" fill="#E3F6FA"></path>
                        <path d="M11.0750004,48.3350007 C7.77390651,45.6956674 6.12335956,43.3966673 6.12335956,41.4380004 C6.12335956,39.4793335 7.97557318,39.4793335 11.6800004,41.4380004 C14.5600001,39.8485514 16.5,39.682551 17.5,40.9399994 C18.5,42.1974477 16.3583335,44.6624482 11.0750004,48.3350007 Z" id="Path-9" fill="#39B549"></path>
                        <g id="Group" transform="translate(2.000000, 32.000000)" fill="#061A30" fill-rule="nonzero">
                            <path d="M9.68000042,16.9400007 L7.86500034,16.9400007 C3.50900015,16.9400007 0,13.4310006 0,9.07500039 L0,7.86500034 C0,7.50200033 0.24200001,7.26000031 0.605000026,7.26000031 L2.4200001,7.26000031 C6.77600029,7.26000031 10.2850004,10.7690005 10.2850004,15.1250007 L10.2850004,16.3350007 C10.2850004,16.6980007 10.0430004,16.9400007 9.68000042,16.9400007 Z M1.21000005,8.47000037 L1.21000005,9.07500039 C1.21000005,12.7050006 4.23500018,15.7300007 7.86500034,15.7300007 L9.07500039,15.7300007 L9.07500039,15.1250007 C9.07500039,11.4950005 6.05000026,8.47000037 2.4200001,8.47000037 L1.21000005,8.47000037 Z" id="Shape"></path>
                            <path d="M11.4950005,16.9400007 L9.68000042,16.9400007 C9.3170004,16.9400007 9.07500039,16.6980007 9.07500039,16.3350007 L9.07500039,15.1250007 C9.07500039,10.7690005 12.5840005,7.26000031 16.9400007,7.26000031 L18.7550008,7.26000031 C19.1180008,7.26000031 19.3600008,7.50200033 19.3600008,7.86500034 L19.3600008,9.07500039 C19.3600008,13.4310006 15.8510007,16.9400007 11.4950005,16.9400007 Z M10.2850004,15.7300007 L11.4950005,15.7300007 C15.1250007,15.7300007 18.1500008,12.7050006 18.1500008,9.07500039 L18.1500008,8.47000037 L16.9400007,8.47000037 C13.3100006,8.47000037 10.2850004,11.4950005 10.2850004,15.1250007 L10.2850004,15.7300007 Z" id="Shape"></path>
                            <path d="M13.3100006,9.43800041 C12.9470006,9.43800041 12.7050006,9.1960004 12.7050006,8.83300038 C12.5840005,4.47700019 10.5270005,2.05700009 9.68000042,1.33100006 C8.83300038,2.05700009 6.77600029,4.35600019 6.65500029,8.83300038 C6.65500029,9.1960004 6.41300028,9.43800041 6.05000026,9.43800041 C5.68700025,9.43800041 5.44500024,9.1960004 5.44500024,8.83300038 C5.56600024,2.66200012 9.1960004,0.24200001 9.3170004,0.121000005 C9.55900041,1.39055434e-14 9.80100042,1.39055434e-14 10.0430004,0.121000005 C10.1640004,0.24200001 13.7940006,2.78300012 13.9150006,8.83300038 C13.9150006,9.1960004 13.6730006,9.43800041 13.3100006,9.43800041 C13.3100006,9.43800041 13.3100006,9.43800041 13.3100006,9.43800041 Z" id="Path"></path>
                            <path d="M2.78300012,8.47000037 C2.54100011,8.47000037 2.2990001,8.34900036 2.17800009,8.22800036 C1.57300007,7.0180003 1.21000005,5.68700025 1.21000005,4.35600019 L1.21000005,4.23500018 C1.21000005,4.11400018 1.33100006,3.87200017 1.45200006,3.75100016 C1.57300007,3.63000016 1.69400007,3.63000016 1.93600008,3.63000016 L3.26700014,3.87200017 C4.5980002,4.11400018 5.80800025,4.5980002 6.8970003,5.44500024 C7.0180003,5.68700025 7.13900031,6.05000026 6.8970003,6.29200027 C6.65500029,6.53400028 6.29200027,6.65500029 6.05000026,6.41300028 C5.20300023,5.68700025 4.11400018,5.20300023 3.02500013,5.08200022 L2.4200001,4.96100022 C2.54100011,5.92900026 2.78300012,6.77600029 3.26700014,7.62300033 C3.38800015,7.86500034 3.38800015,8.22800036 3.02500013,8.47000037 C2.90400013,8.47000037 2.90400013,8.47000037 2.78300012,8.47000037 Z" id="Path"></path>
                            <path d="M16.5770007,8.47000037 C16.4560007,8.47000037 16.3350007,8.47000037 16.3350007,8.34900036 C16.0930007,8.22800036 15.9720007,7.86500034 16.0930007,7.50200033 C16.5770007,6.65500029 16.8190007,5.80800025 16.9400007,4.84000021 L16.3350007,4.96100022 C15.2460007,5.08200022 14.1570006,5.56600024 13.3100006,6.29200027 C13.0680006,6.53400028 12.7050006,6.41300028 12.4630005,6.17100027 C12.2210005,5.92900026 12.3420005,5.56600024 12.5840005,5.32400023 C13.6730006,4.47700019 14.8830006,3.87200017 16.2140007,3.75100016 L17.4240008,3.63000016 C17.5450008,3.63000016 17.7870008,3.63000016 17.9080008,3.75100016 C18.0290008,3.87200017 18.1500008,4.11400018 18.1500008,4.23500018 L18.1500008,4.35600019 C18.1500008,5.68700025 17.7870008,7.0180003 17.1820007,8.22800036 C17.0610007,8.34900036 16.8190007,8.47000037 16.5770007,8.47000037 Z" id="Path"></path>
                        </g>
                        <g id="Group" fill="#061A30" fill-rule="nonzero">
                            <path d="M2.83499992,52.5 L21.2849994,52.5 C22.8599994,52.5 24.1199994,51.509999 24.1199994,50.249999 L24.1199994,34.6799994 C24.1199994,30.6299995 21.2849994,27.1649996 17.3249995,26.3999996 L17.3249995,22.6649997 C17.3249995,22.2149997 16.9649996,21.8549997 16.5149996,21.8549997 C16.5149996,21.8549997 16.5149996,21.8549997 16.5149996,21.8549997 L14.4899996,21.8549997 L14.4899996,19.6949998 L16.4249996,19.6949998 C17.0549995,19.6949998 17.5949995,19.1999998 17.6399995,18.5249998 C19.3049995,18.3449998 20.9249994,17.8949998 22.5,17.2649999 C24.6149993,16.4549999 25.1549993,16.2299999 26.6399993,17.7149998 C27.1349993,18.1649998 27.8999993,18.1649998 28.3499992,17.7149998 L29.6549992,16.3649999 C30.1049992,15.8699999 30.1049992,15.1049999 29.6099992,14.6099999 C26.0999993,11.19 23.2649994,12.315 20.9699994,13.17 C19.8449995,13.62 18.7199995,13.9799999 17.5049995,14.1599999 C16.9649996,12.585 14.3099996,12 12.0149997,12 C9.44999975,12 6.47999983,12.72 6.47999983,14.8349999 L6.47999983,18.4799998 C6.47999983,19.1549998 7.01999981,19.6949998 7.6949998,19.6949998 L9.62999974,19.6949998 L9.62999974,21.8549997 L7.6049998,21.8549997 C7.15499981,21.8549997 6.79499982,22.2149997 6.79499982,22.6649997 C6.79499982,22.6649997 6.79499982,22.6649997 6.79499982,22.6649997 L6.79499982,26.3999996 C2.83499992,27.2099996 0,30.6749995 0,34.6799994 L0,50.249999 C0,51.509999 1.25999997,52.5 2.83499992,52.5 Z M8.09999979,18.0749998 L8.09999979,14.8349999 C8.09999979,14.3399999 9.62999974,13.62 12.0599997,13.62 C13.0949997,13.62 14.0849996,13.755 15.0299996,14.0699999 C15.6149996,14.2949999 15.9749996,14.5649999 15.9749996,14.8349999 L15.9749996,15.9149999 L16.8299996,15.8699999 C18.4499995,15.7349999 20.0699995,15.3299999 21.5549994,14.6999999 C23.7149994,13.8899999 25.6049993,13.17 28.1699993,15.5099999 L27.4499993,16.2749999 C25.3799993,14.4299999 24.0299994,14.9249999 21.9149994,15.7799999 C20.2499995,16.4549999 18.5399995,16.8599999 16.7849996,16.9499999 L16.0199996,16.9949999 L16.0199996,18.0749998 L8.09999979,18.0749998 Z M10.4399997,23.4749997 C10.8899997,23.4749997 11.2499997,23.1149997 11.2499997,22.6649997 C11.2499997,22.6649997 11.2499997,22.6649997 11.2499997,22.6649997 L11.2499997,19.6949998 L12.8249997,19.6949998 L12.8249997,22.6649997 C12.8249997,23.1149997 13.1849997,23.4749997 13.6349996,23.4749997 C13.6349996,23.4749997 13.6349996,23.4749997 13.6349996,23.4749997 L15.6599996,23.4749997 L15.6599996,26.2649996 C15.6599996,26.2649996 8.45999978,26.2649996 8.45999978,26.2649996 C8.45999978,26.2649996 8.45999978,23.4749997 8.45999978,23.4749997 L10.4399997,23.4749997 Z M1.61999996,34.6799994 C1.61999996,30.8999995 4.67999988,27.8399996 8.45999978,27.8399996 L15.6599996,27.8399996 C19.4399995,27.8399996 22.4999994,30.8999995 22.4999994,34.6799994 L22.4999994,50.249999 C22.4999994,50.474999 22.0049994,50.879999 21.2849994,50.879999 L2.83499992,50.879999 C2.11499994,50.879999 1.61999996,50.519999 1.61999996,50.249999 L1.61999996,34.6799994 Z" id="Shape"></path>
                            <path d="M32.4699991,11.6299993 C35.439999,11.6299993 37.8699989,9.19999933 37.8699989,6.22999941 C37.8699989,3.25999949 35.439999,0.829999554 32.4699991,0.829999554 C29.4999992,0.829999554 27.0699992,3.25999949 27.0699992,6.22999941 C27.0699992,9.19999933 29.4999992,11.6299993 32.4699991,11.6299993 Z M32.4699991,2.62999951 C34.449999,2.62999951 36.069999,4.24999946 36.069999,6.22999941 C36.069999,8.20999936 34.449999,9.82999932 32.4699991,9.82999932 C30.4899991,9.82999932 28.8699992,8.20999936 28.8699992,6.22999941 C28.8699992,4.24999946 30.4899991,2.62999951 32.4699991,2.62999951 Z" id="Shape"></path>
                            <path d="M25,19 C22.7821782,19 21,20.7821782 21,23 C21,25.2178218 22.7821782,27 25,27 C27.2178218,27 29,25.2178218 29,23 C29,23 29,23 29,23 C29,20.7821782 27.2178218,19 25,19 Z M25,25.4158416 C23.6534653,25.4158416 22.5841584,24.3465347 22.5841584,23 C22.5841584,21.6534653 23.6534653,20.5841584 25,20.5841584 C26.3465347,20.5841584 27.4158416,21.6534653 27.4158416,23 C27.4158416,24.3465347 26.3465347,25.4158416 25,25.4158416 Z" id="Shape"></path>
                        </g>
                        <g id="lipstick" transform="translate(26.456314, 25.336250)">
                            <path d="M6.7058089,14.4312497 L6.7058089,1.75261741 C2.9019363,5.69337262 0.901936299,7.97041674 0.705808898,8.58374977 C0.411617796,9.50374932 0.443102012,13.0243746 1,14.2537496 C1.37126533,15.073333 3.27320162,15.1324997 6.7058089,14.4312497 Z" id="Path-3" fill="#E62664"></path>
                            <path d="M10.4636854,14.7037496 C10.4636854,14.2537496 10.1036854,13.9837496 9.7436854,13.8937496 L9.7436854,9.48374975 C9.7436854,9.03374976 9.29368541,8.58374977 8.84368542,8.58374977 L8.84368542,8.58374977 L8.84368542,0.843749978 C8.84368542,0.483749987 8.57368543,0.123749997 8.21368544,0.0337499991 C7.85368545,-0.0562499985 7.49368545,0.0337499991 7.22368546,0.303749992 L3.35368556,4.71374988 C3.17368557,4.89374987 3.17368557,5.07374987 3.17368557,5.34374986 L3.17368557,8.67374977 C2.72368558,8.67374977 2.27368559,9.12374976 2.27368559,9.57374975 L2.27368559,13.9837496 C1.9136856,14.0737496 1.55368561,14.3437496 1.55368561,14.7937496 L1.01368563,22.8937494 C0.923685629,23.9737494 1.28368562,25.0537493 1.9136856,25.6837493 C2.36368559,26.1337493 2.81368558,26.4037493 3.35368556,26.4037493 L8.75368542,26.4037493 C9.29368541,26.4037493 9.83368539,26.1337493 10.1936854,25.6837493 C10.8236854,25.0537493 11.0936854,23.9737494 11.0936854,22.8937494 L10.4636854,14.7037496 Z M4.07368555,13.8037496 L4.07368555,10.2937497 L7.94368544,10.2937497 L7.94368544,13.8037496 L4.07368555,13.8037496 Z M7.04368547,3.18374992 L7.04368547,8.49374977 L4.97368552,8.49374977 L4.97368552,5.52374985 L7.04368547,3.18374992 Z M8.84368542,24.3337494 C8.75368542,24.4237494 8.75368542,24.4237494 8.66368542,24.4237494 L3.26368557,24.4237494 C3.26368557,24.4237494 3.17368557,24.4237494 3.08368557,24.3337494 C2.90368558,24.0637494 2.63368558,23.6137494 2.72368558,22.8937494 L3.17368557,15.6037496 L8.66368542,15.6037496 L9.11368541,22.8937494 C9.29368541,23.5237494 9.02368541,24.0637494 8.84368542,24.3337494 Z" id="Shape" fill="#061A30" fill-rule="nonzero"></path>
                        </g>
                    </g>
                </g>
            </g>
        </g>
    </g>
</svg>