<?xml version="1.0" encoding="UTF-8"?>
<svg width="61px" height="53px" viewBox="0 0 61 53" version="1.1" xmlns="http://www.w3.org/2000/svg" xmlns:xlink="http://www.w3.org/1999/xlink">
    <title>categorie-boulangerie</title>
    <g id="PICTOGRAMME" stroke="none" stroke-width="1" fill="none" fill-rule="evenodd">
        <g id="06" transform="translate(-559.000000, -170.000000)">
            <g id="ALIMENTATION" transform="translate(78.000000, 103.000000)">
                <g id="boulangerie" transform="translate(474.000000, 67.000000)">
                    <g id="categorie-boulangerie" transform="translate(7.466071, 0.013082)">
                        <path d="M8.21321789,37.1970239 C7.28770889,32.7493195 6.85262026,29.2659504 6.90795201,26.7469168 C7.02784489,21.2886724 9.83555189,15.6683427 10.9382254,13.9869177 C13.7372489,9.71879326 19.9315793,5.41691739 24.720452,5.41691739 C29.5093247,5.41691739 40.2179228,4.56752276 39.3361747,9.35752316 C38.7483426,12.5508568 34.4475939,13.782817 26.4339286,13.053404 C27.3567006,13.9369969 26.7855417,14.9148348 24.720452,15.9869177 C21.6228175,17.5950421 22.4733817,21.796917 18.5036551,22.066917 C14.5339286,22.3369169 16.7339286,27.1869177 14.5339286,27.1869177 C12.3339286,27.1869177 13.7372489,35.4769166 10.9382254,37.1970239 C9.07220982,38.3437621 8.16387397,38.3437621 8.21321789,37.1970239 Z" id="Path-2" fill="#FFC687"></path>
                        <path d="M37.1339286,5.2869177 L29.4839286,2.3369177 C28.9839286,2.1369177 28.4339286,2.1369177 27.9339286,2.2369177 C27.8839286,1.5369177 27.5339286,0.886917696 26.9339286,0.486917696 C26.2839286,0.0369176962 25.5339286,-0.113082304 24.7839286,0.0869176962 L16.6339286,2.3869177 C16.2339286,2.4869177 15.9339286,2.6869177 15.6339286,2.9369177 C15.6339286,2.9369177 15.6339286,2.9369177 15.6339286,2.9369177 L15.6339286,2.8869177 C15.2339286,2.1869177 14.5839286,1.7369177 13.7839286,1.6369177 C13.5339286,1.5869177 13.3339286,1.5869177 13.0839286,1.6369177 C12.9839286,1.6369177 12.9339286,1.6369177 12.8839286,1.6869177 C12.7839286,1.6869177 12.6839286,1.7369177 12.5839286,1.7869177 C12.4839286,1.8369177 12.3839286,1.8869177 12.2339286,1.9369177 C12.1839286,1.9369177 12.1339286,1.9869177 12.0839286,2.0369177 C11.9339286,2.1369177 11.7839286,2.2369177 11.6339286,2.3869177 L2.93392857,10.7369177 C2.88392857,10.7869177 2.78392857,10.8869177 2.73392857,10.9369177 C2.73392857,10.9369177 2.73392857,10.9369177 2.73392857,10.9369177 C2.68392857,10.9869177 2.63392857,11.0869177 2.58392857,11.1869177 C2.53392857,11.2869177 2.48392857,11.3369177 2.43392857,11.4369177 C2.38392857,11.5369177 2.33392857,11.5869177 2.33392857,11.6869177 C2.18392857,12.0369177 2.13392857,12.4369177 2.18392857,12.8369177 C2.28392857,13.5869177 2.68392857,14.2869177 3.33392857,14.7369177 L3.38392857,14.7369177 L5.38392857,16.0369177 C5.38392857,16.0369177 5.43392857,16.0869177 5.43392857,16.0869177 L10.6839286,19.4869177 L13.0839286,21.0369177 L13.8339286,21.5369177 L17.1839286,23.6869177 C17.2339286,23.7369177 17.2839286,23.7369177 17.3339286,23.7869177 C17.2839286,23.7869177 17.2339286,23.7369177 17.1839286,23.6869177 L16.6839286,23.3869177 L15.6839286,22.7369177 C15.8839286,22.8369177 15.9839286,23.0869177 15.8839286,23.3369177 L15.1339286,25.6869177 C15.0839286,25.9369177 14.8339286,26.0369177 14.5839286,26.0369177 L12.0839286,25.8369177 L4.73392857,25.1869177 L2.53392857,24.9869177 C2.33392857,24.9869177 2.18392857,24.8369177 2.13392857,24.7369177 C2.08392857,24.6369177 1.98392857,24.4869177 2.08392857,24.2869177 L4.68392857,16.2369177 C4.73392857,16.1369177 4.78392857,16.0869177 4.83392857,16.0369177 C4.88392857,15.9869177 4.98392857,15.9869177 5.03392857,15.9369177 C5.08392857,15.9369177 5.23392857,15.8869177 5.38392857,15.9369177 L3.38392857,14.6369177 C3.13392857,14.8869177 2.93392857,15.2369177 2.78392857,15.6369177 L0.133928571,23.6869177 C-0.116071429,24.4369177 -0.0160714286,25.2369177 0.433928571,25.8869177 C0.833928571,26.4869177 1.43392857,26.8869177 2.18392857,26.9869177 C2.03392857,27.4869177 2.03392857,27.9869177 2.23392857,28.4869177 L4.83392857,36.2369177 C5.48392857,38.1869177 7.38392857,39.3869177 9.43392857,39.1869177 C10.4339286,39.0869177 11.3839286,38.6369177 12.0339286,37.9869177 C12.7339286,37.3369177 13.1839286,36.4369177 13.3339286,35.4369177 L14.2839286,28.6369177 C14.3339286,28.4369177 14.3339286,28.1869177 14.2839286,27.9869177 L14.4339286,27.9869177 C15.1839286,28.0369177 15.8839286,27.7869177 16.3839286,27.2869177 C16.6839286,26.9869177 16.8839286,26.6369177 17.0339286,26.2369177 L17.7839286,23.8869177 L17.7839286,23.8869177 C17.8839286,23.8869177 17.9339286,23.9369177 18.0339286,23.9369177 C18.0839286,23.9369177 18.1839286,23.9869177 18.2839286,23.9869177 C18.2839286,23.9869177 18.3339286,23.9869177 18.3339286,23.9869177 C18.4839286,23.9869177 18.6339286,23.9869177 18.7839286,23.9869177 C19.3339286,23.9369177 19.8339286,23.6869177 20.2339286,23.2869177 L23.4839286,20.1869177 C23.6839286,20.0369177 23.7839286,19.8369177 23.9339286,19.6369177 C23.9839286,19.5869177 23.9839286,19.4869177 24.0339286,19.4369177 L24.0339286,19.4369177 C24.0839286,19.2869177 24.1339286,19.1369177 24.1839286,18.9869177 C24.1839286,18.9369177 24.1839286,18.8869177 24.2339286,18.8369177 L24.2339286,18.8369177 C24.2339286,18.7369177 24.2839286,18.6369177 24.2839286,18.5369177 C24.2839286,18.4869177 24.2839286,18.4369177 24.2839286,18.3369177 C24.2839286,18.1369177 24.2839286,17.8869177 24.2339286,17.6869177 L24.2339286,17.6869177 L26.5839286,17.0369177 C26.9839286,16.9369177 27.3839286,16.6869177 27.6339286,16.4369177 C28.1339286,15.9369177 28.4339286,15.2369177 28.3839286,14.4869177 L28.3839286,14.3369177 C28.5839286,14.3869177 28.8339286,14.3869177 29.0339286,14.3369177 L35.8839286,13.6369177 C36.8839286,13.5369177 37.7839286,13.0869177 38.4839286,12.4369177 C39.1839286,11.7869177 39.6339286,10.8869177 39.7839286,9.8869177 C40.1839286,7.9369177 39.0339286,6.0369177 37.1339286,5.2869177 Z M12.3339286,28.3369177 L11.3839286,35.1369177 C11.2339286,36.2369177 10.3339286,37.0869177 9.23392857,37.1869177 C8.13392857,37.2869177 7.08392857,36.6369177 6.73392857,35.5869177 L4.13392857,27.8869177 C4.03392857,27.6369177 4.13392857,27.4869177 4.23392857,27.3869177 C4.23392857,27.3869177 4.28392857,27.3369177 4.28392857,27.3369177 C4.33392857,27.2869177 4.48392857,27.1869177 4.63392857,27.1869177 C4.63392857,27.1869177 4.63392857,27.1869177 4.68392857,27.1869177 L11.8839286,27.7869177 C11.8839286,27.7869177 11.8839286,27.7869177 11.8839286,27.7869177 C12.0839286,27.7869177 12.1839286,27.9369177 12.2339286,27.9869177 C12.2839286,28.0369177 12.2839286,28.0869177 12.3339286,28.1369177 C12.3339286,28.1869177 12.3339286,28.2869177 12.3339286,28.3369177 Z M22.1839286,18.7869177 L18.9339286,21.8869177 L18.9339286,21.8869177 C18.7339286,22.0369177 18.4839286,22.0869177 18.2839286,21.9369177 L18.2839286,21.9369177 L16.8339286,20.9869177 L14.5839286,19.5369177 L6.33392857,14.1869177 L6.28392857,14.1369177 L4.43392857,12.9869177 C4.23392857,12.8869177 4.23392857,12.6869177 4.18392857,12.5869177 C4.18392857,12.5369177 4.18392857,12.4869177 4.18392857,12.3869177 C4.18392857,12.3869177 4.18392857,12.3369177 4.18392857,12.3369177 C4.18392857,12.3369177 4.18392857,12.2869177 4.23392857,12.2869177 C4.23392857,12.2369177 4.28392857,12.1869177 4.33392857,12.1869177 L13.0839286,3.7869177 C13.1339286,3.7369177 13.1339286,3.7369177 13.1839286,3.7369177 C13.1839286,3.7369177 13.2339286,3.7369177 13.2339286,3.7369177 C13.2839286,3.6869177 13.3839286,3.6869177 13.4339286,3.6869177 C13.4839286,3.6869177 13.5339286,3.6869177 13.5339286,3.6869177 C13.6339286,3.6869177 13.7839286,3.7369177 13.8839286,3.9369177 L15.0339286,5.8869177 L19.7839286,13.8869177 L20.4839286,15.0869177 L21.4339286,16.6869177 L22.0339286,17.6869177 L22.3339286,18.1869177 C22.3839286,18.3369177 22.3339286,18.5869177 22.1839286,18.7869177 Z M26.3339286,12.0369177 L26.3839286,13.6369177 L26.4339286,14.6369177 C26.4339286,14.8869177 26.2839286,15.0869177 26.0839286,15.1369177 L23.6839286,15.7869177 C23.4839286,15.8369177 23.2339286,15.7369177 23.1339286,15.5869177 C23.1339286,15.5869177 23.1339286,15.5869177 23.1339286,15.5869177 L20.7339286,11.4869177 L16.8839286,4.9869177 C16.8839286,4.9369177 16.8339286,4.9369177 16.8339286,4.8869177 C16.7839286,4.7369177 16.8339286,4.5869177 16.8339286,4.5369177 C16.8339286,4.4869177 16.8839286,4.4369177 16.9339286,4.3369177 C16.9839286,4.2869177 17.0339286,4.2369177 17.1339286,4.2369177 L25.2839286,1.9369177 C25.4839286,1.8869177 25.6339286,1.9369177 25.7339286,2.0369177 C25.7839286,2.0869177 25.9339286,2.2369177 25.9339286,2.4369177 L26.0339286,4.7369177 L26.3339286,12.0369177 Z M37.8839286,9.6869177 C37.7339286,10.7869177 36.8339286,11.6369177 35.7339286,11.7369177 L28.8839286,12.4369177 C28.6839286,12.4369177 28.5339286,12.3869177 28.4839286,12.3369177 C28.4339286,12.2869177 28.3339286,12.1869177 28.3339286,11.9869177 C28.3339286,11.9869177 28.3339286,11.9869177 28.3339286,11.9369177 L28.0839286,4.7369177 C28.0839286,4.7369177 28.0839286,4.7369177 28.0839286,4.7369177 C28.0839286,4.4869177 28.2339286,4.3869177 28.2839286,4.3369177 C28.3839286,4.2869177 28.5339286,4.1869177 28.7839286,4.2869177 L36.3839286,7.2369177 C37.4339286,7.5369177 38.0339286,8.5869177 37.8839286,9.6869177 Z" id="croissant" fill="#061A30" fill-rule="nonzero"></path>
                        <path d="M19.9315793,50.4869177 C18.4090156,48.9869177 19.8725239,38.7618624 26.4339286,35.4769166 C32.9953333,32.1919708 36.5693418,26.4769168 39.8631586,24.4069169 C43.1569754,22.3369169 45.3227457,19.3946411 50.6910324,16.6907794 C56.0593192,13.9869177 57.4354178,17.5950421 56.0593192,21.0009795 C54.6832206,24.4069169 27.6952567,46.9625036 26.4339286,46.9625036 C25.1726004,46.9625036 21.454143,51.9869177 19.9315793,50.4869177 Z" id="Path-3" fill="#CE8D62"></path>
                        <path d="M58.3852617,12.8790366 C56.9182685,11.0481995 54.4034232,10.4779387 52.2777801,11.4683916 L47.7869848,13.5393385 C46.0804826,14.3196953 44.4637963,15.3401619 43.0267418,16.5106971 L41.8890737,17.4411225 C40.4220806,17.9513558 39.0149647,18.7016988 37.7874807,19.6921517 C36.7396284,20.5625497 35.8414694,21.5530025 35.0930035,22.693524 L34.7936172,23.1737436 C32.9673604,23.6239494 31.2608582,24.4943474 29.7938651,25.6948963 C28.7460129,26.5352806 27.8478538,27.5557471 27.0993879,28.6662549 L26.5305539,29.4766254 C26.2311675,29.6567078 25.9617198,29.8367901 25.6922721,30.0768999 L23.7163221,31.6976409 C22.2193904,32.8981898 21.1415995,34.5789583 20.6326427,36.4097954 C20.0039314,36.7399464 19.4051587,37.1301248 18.8662633,37.5803306 C17.0998838,38.9909756 15.8424611,40.9118539 15.2137498,43.1328694 L14.7347316,44.9036791 C14.2557134,46.644475 14.6449157,48.5053258 15.7825838,49.9159708 C16.7106815,51.086506 18.0579201,51.8068354 19.5249132,51.956904 C19.704545,51.9869177 19.9141155,51.9869177 20.0937473,51.9869177 C21.3811086,51.9869177 22.578654,51.5667256 23.5965676,50.7263413 L48.3857575,30.5271057 C52.367596,27.2856236 55.7806004,23.4738808 58.5648935,19.1519047 L58.7145867,18.9117949 C59.9121321,17.0209304 59.7923775,14.6198325 58.3852617,12.8790366 Z M56.9482072,17.7712734 L56.798514,18.0113832 C54.1339755,22.1232633 50.8706642,25.7849375 47.0684576,28.9063647 L22.2792677,49.1056003 C21.5607404,49.675861 20.6625814,49.9759983 19.7344837,49.8559434 C18.806386,49.7659022 17.9980428,49.3156963 17.3992701,48.595367 C16.6807429,47.724969 16.4412338,46.5544338 16.7406202,45.4739398 L17.2196383,43.7031301 C17.7285951,41.9023068 18.7465087,40.3415932 20.1835632,39.171058 C21.7104336,37.9104816 23.6564449,37.220166 25.6024562,37.1901522 L30.2429446,37.1901522 C30.8117787,37.1901522 31.2907968,36.7099327 31.2907968,36.1396719 C31.2907968,35.5694112 30.8117787,35.0891916 30.2429446,35.0891916 L25.5725175,35.0891916 C24.794113,35.0891916 24.0456471,35.2092465 23.2971813,35.3593151 C23.7462608,34.5789583 24.3150949,33.858629 25.0336221,33.2883682 L27.009572,31.6676272 C27.997547,30.8572567 29.2549697,30.3770371 30.542331,30.3470234 L36.1707944,30.3470234 C36.7396284,30.3470234 37.2186466,29.8668038 37.2186466,29.2965431 C37.2186466,28.7262823 36.7396284,28.2460628 36.1707944,28.2460628 L30.542331,28.2460628 C30.542331,28.2460628 30.5123923,28.2460628 30.5123923,28.2460628 C30.3626992,28.2460628 30.2429446,28.2760765 30.0932514,28.2760765 C30.4225764,27.9159118 30.7519014,27.6157746 31.1411037,27.2856236 C33.1170536,25.6648826 35.6019603,24.7944846 38.1766829,24.7944846 L42.7273555,24.7944846 C43.2961895,24.7944846 43.7752077,24.3142651 43.7752077,23.7440043 C43.7752077,23.1737436 43.2961895,22.693524 42.7273555,22.693524 L38.1766829,22.693524 C38.1467443,22.693524 38.1467443,22.693524 38.1168057,22.693524 C37.9671125,22.693524 37.8174193,22.693524 37.6677261,22.693524 C38.1168057,22.1832907 38.5658852,21.7030711 39.1047806,21.282879 C41.0807305,19.662138 43.5656373,18.79174 46.1104213,18.79174 C46.1104213,18.79174 46.1403599,18.79174 46.1403599,18.79174 L50.6910324,18.79174 C51.2598665,18.79174 51.7388847,18.3115204 51.7388847,17.7412597 C51.7388847,17.170999 51.2598665,16.6907794 50.6910324,16.6907794 L46.2900531,16.6907794 C47.0385189,16.2105598 47.8468621,15.7903677 48.6552052,15.4001893 L53.1460005,13.3292424 C54.4034232,12.7589817 55.8704163,13.0891326 56.7685754,14.1696267 C57.5769185,15.220107 57.6667344,16.6607657 56.9482072,17.7712734 Z" id="Shape" fill="#061A30" fill-rule="nonzero"></path>
                    </g>
                </g>
            </g>
        </g>
    </g>
</svg>