<?xml version="1.0" encoding="UTF-8"?>
<svg width="54px" height="38px" viewBox="0 0 54 38" version="1.1" xmlns="http://www.w3.org/2000/svg" xmlns:xlink="http://www.w3.org/1999/xlink">
    <title>categorie-epiceriesucree</title>
    <g id="PICTOGRAMME" stroke="none" stroke-width="1" fill="none" fill-rule="evenodd">
        <g id="06" transform="translate(-957.000000, -181.000000)">
            <g id="ALIMENTATION" transform="translate(78.000000, 103.000000)">
                <g id="epicerie-sucrée-copy-2" transform="translate(864.000000, 78.000000)">
                    <g id="categorie-epiceriesucree" transform="translate(15.000000, 0.000000)">
                        <path d="M32.9904,16.4140776 C36.1744532,14.7242627 38.7979331,14.7242627 40.8608398,16.4140776 C43.9551999,18.9487999 45.5507045,20.468157 48.1669922,19.2486372 C49.911184,18.435624 51.1155465,18.1695449 51.7800798,18.4503999 L51.7800798,30.7187155 C51.1155465,32.1755717 49.5763858,32.9039998 47.1625977,32.9039998 C44.7488095,32.9039998 40.7268369,32.9039998 35.0966797,32.9039998 C33.0322266,32.6396534 32,31.2361935 32,28.69362 C32,26.1510466 32.3301333,22.0578658 32.9904,16.4140776 Z" id="Path-14" fill="#E62664"></path>
                        <circle id="Oval" fill="#39B549" cx="43" cy="23" r="3"></circle>
                        <g id="jam" transform="translate(30.000000, 3.000000)" fill="#061A30" fill-rule="nonzero">
                            <path d="M21.4810398,4.58527997 C21.7800798,4.13671997 21.9295998,3.58847997 21.9295998,2.99039998 C21.9295998,1.34567999 20.5839198,0 18.9391999,0 L4.98399996,0 C3.33927997,0 1.99359998,1.34567999 1.99359998,2.99039998 C1.99359998,3.58847997 2.14311998,4.13671997 2.44215998,4.58527997 C0.548239996,5.58207996 0,7.67535994 0,8.97119993 C0,9.51943993 0.448559997,9.96799992 0.996799992,9.96799992 L0.996799992,11.9615999 L0.996799992,26.9135998 C0.996799992,29.6547998 3.23959998,31.8975998 5.98079995,31.8975998 L17.9423999,31.8975998 C20.6835998,31.8975998 22.9263998,29.6547998 22.9263998,26.9135998 L22.9263998,11.9615999 L22.9263998,9.96799992 C23.4746398,9.96799992 23.9231998,9.51943993 23.9231998,8.97119993 C23.9231998,7.67535994 23.3749598,5.58207996 21.4810398,4.58527997 Z M3.98719997,2.99039998 C3.98719997,2.44215998 4.43575997,1.99359998 4.98399996,1.99359998 L18.9391999,1.99359998 C19.4874399,1.99359998 19.9359998,2.44215998 19.9359998,2.99039998 C19.9359998,3.53863997 19.4874399,3.98719997 18.9391999,3.98719997 L4.98399996,3.98719997 C4.43575997,3.98719997 3.98719997,3.53863997 3.98719997,2.99039998 Z M4.98399996,5.98079995 L18.9391999,5.98079995 C20.8331198,5.98079995 21.5308798,7.07727995 21.7800798,7.97439994 L2.14311998,7.97439994 C2.39231998,7.07727995 3.09007998,5.98079995 4.98399996,5.98079995 Z M20.9327998,25.9167998 L2.99039998,25.9167998 L2.99039998,9.96799992 L20.9327998,9.96799992 L20.9327998,25.9167998 Z M17.9423999,29.9039998 L5.98079995,29.9039998 C4.68495996,29.9039998 3.58847997,29.0567198 3.18975998,27.9103998 L20.7832798,27.9103998 C20.3347198,29.0567198 19.2382399,29.9039998 17.9423999,29.9039998 Z" id="Shape"></path>
                            <path d="M11.9615999,23.8733598 C14.1545599,23.8733598 15.9487999,22.0791198 15.9487999,19.8861598 C15.9487999,18.0919199 14.7526399,16.5468799 13.1079199,16.0484799 C13.5066399,15.0018399 14.6031199,14.9021599 14.9519999,14.9021599 C15.5002399,14.9021599 15.9487999,14.4535999 15.9487999,13.9053599 C15.9487999,13.3571199 15.5002399,12.9085599 14.9519999,12.9085599 C13.5066399,12.9085599 11.4631999,13.7558399 11.0644799,15.9986399 C9.32007993,16.3973599 7.97439994,17.9922399 7.97439994,19.8861598 C7.97439994,22.0791198 9.76863993,23.8733598 11.9615999,23.8733598 Z M11.9615999,17.8925599 C13.0580799,17.8925599 13.9551999,18.7896799 13.9551999,19.8861598 C13.9551999,20.9826398 13.0580799,21.8797598 11.9615999,21.8797598 C10.8651199,21.8797598 9.96799992,20.9826398 9.96799992,19.8861598 C9.96799992,18.7896799 10.8651199,17.8925599 11.9615999,17.8925599 Z" id="Shape"></path>
                        </g>
                        <path d="M11.0745584,31.9071998 C11.3711983,31.9071998 17.3886789,30.9103998 17.8242581,30.7187155 C18.2598373,30.5270312 16.2492776,27.4071394 18.2598373,26.6975961 C19.2060284,26.3636773 18.8154718,24.303176 19.9737571,22.4787167 C21.2767099,20.4263859 24.0791016,18.5795111 24.0791016,18.0291173 C24.0791016,17.3359993 23.47972,14.9844268 22.2809567,10.9743999 L20.270397,4.99359998 C15.1858104,6.15761432 10.7801578,7.16262816 7.05343896,8.00864151 C5.87808613,8.2754618 4.84066839,9.29573962 4.91040196,10.9743999 C7.05343896,18.0291173 10.840289,31.9071998 11.0745584,31.9071998 Z" id="Path-13" fill="#B9774E"></path>
                        <g id="chocolate" fill="#061A30" fill-rule="nonzero">
                            <path d="M7.5148789,16.4140776 L12.5907181,15.0297578 C13.1180781,14.8979178 13.447678,14.3705579 13.315838,13.843198 C13.315838,13.843198 13.315838,13.843198 13.315838,13.843198 L11.8655983,8.70143872 C11.7337583,8.1740788 11.1404784,7.91039884 10.6790384,8.04223882 L5.60319918,9.42655861 C5.07583925,9.5583986 4.81215929,10.1516785 4.94399927,10.6131184 L6.32831907,15.6889577 C6.46015905,16.1503976 6.85567899,16.4140776 7.31711892,16.4140776 C7.38303891,16.4140776 7.44895891,16.4140776 7.5148789,16.4140776 Z M10.2175985,10.2175985 L11.0745584,13.381758 L7.91039884,14.2387179 L7.05343896,11.0745584 L10.2175985,10.2175985 Z" id="Shape"></path>
                            <path d="M20.7647969,6.26239908 C20.698877,5.99871912 20.501117,5.80095915 20.303357,5.66911917 C20.105597,5.53727919 19.7759971,5.53727919 19.5782371,5.60319918 L14.5023979,6.98751897 C13.9750379,7.11935895 13.645438,7.64671888 13.843198,8.1740788 L15.2275178,13.2499181 C15.2934378,13.513598 15.4911977,13.711358 15.6889577,13.843198 C15.8207977,13.909118 16.0185576,13.9750379 16.1503976,13.9750379 C16.2163176,13.9750379 16.3481576,13.9750379 16.4140776,13.909118 L21.4899168,12.5247982 C22.0172768,12.3929582 22.2809567,11.7996783 22.1491167,11.3382383 L20.7647969,6.26239908 Z M16.8095975,11.7996783 L15.9526377,8.63551873 L19.1167972,7.77855886 L19.9737571,10.9427184 L16.8095975,11.7996783 Z" id="Shape"></path>
                            <path d="M9.82207856,24.6540764 L14.8979178,23.2697566 C15.1615978,23.2038366 15.3593577,23.0060766 15.4911977,22.8083166 C15.6230377,22.6105567 15.6230377,22.2809567 15.5571177,22.0831968 L14.1727979,17.0073575 C14.0409579,16.4799976 13.447678,16.2163176 12.9203181,16.3481576 L7.84447885,17.7324774 C7.31711892,17.8643174 7.05343896,18.4575973 7.18527894,18.9190372 L8.56959874,23.9948765 C8.63551873,24.2585564 8.8332787,24.4563164 9.03103867,24.5881564 C9.16287865,24.6540764 9.36063862,24.7199964 9.4924786,24.7199964 C9.62431859,24.7199964 9.69023858,24.7199964 9.82207856,24.6540764 Z M12.5247982,18.4575973 L13.381758,21.6217568 L10.2175985,22.4787167 L9.36063862,19.3145572 L12.5247982,18.4575973 Z" id="Shape"></path>
                            <path d="M15.2275178,24.5222364 C15.2275178,24.5222364 15.2275178,24.5222364 15.2275178,24.5222364 L10.0857585,25.9065562 C9.5583986,26.0383962 9.22879864,26.5657561 9.36063862,27.093116 C9.36063862,27.093116 9.36063862,27.093116 9.36063862,27.093116 L10.7449584,32.1689553 C10.8767984,32.6303952 11.2723183,32.8940752 11.7337583,32.8940752 C11.7996783,32.8940752 11.9315182,32.8940752 11.9974382,32.8281552 L17.0732775,31.4438354 C17.3369575,31.3779154 17.5347174,31.1801554 17.6665574,30.9823954 C17.7983974,30.7846355 17.8643174,30.4550355 17.7983974,30.2572756 L16.4799976,25.2473563 C16.3481576,24.7199964 15.8207977,24.3903964 15.2275178,24.5222364 Z M12.5247982,30.7187155 L11.6678383,27.5545559 L14.8319978,26.6975961 L15.6889577,29.8617556 L12.5247982,30.7187155 Z" id="Shape"></path>
                            <path d="M27.8182359,16.7436775 L23.5334365,1.3843198 C23.4675166,1.12063984 23.2697566,0.922879864 23.0719966,0.791039884 C22.8742366,0.659199903 22.5446367,0.593279913 22.3468767,0.725119893 L0.725119893,6.65791902 C0.197759971,6.789759 -0.131839981,7.31711892 0.0659199903,7.84447885 L8.10815881,37.0470346 C8.1740788,37.3107145 8.37183877,37.5084745 8.56959874,37.6403145 C8.70143872,37.7062345 8.89919869,37.7721544 9.03103867,37.7721544 C9.09695866,37.7721544 9.22879864,37.7721544 9.29471863,37.7062345 L21.0284769,34.4761549 C21.4899168,34.344315 21.7535968,33.948795 21.7535968,33.4873551 C21.7535968,32.1030353 22.5446367,30.7846355 23.7971165,30.1913556 C24.2585564,29.9276756 24.5222364,29.3343957 24.2585564,28.8729558 C24.1926364,28.7411158 24.0607965,28.6092758 23.9289565,28.4774358 C22.2809567,27.356796 21.8854368,25.0495963 23.0719966,23.4015966 C23.7311965,22.4127967 24.9177563,21.8195168 26.1043162,21.8854368 L26.1702362,21.8854368 C26.6975961,21.8854368 27.159036,21.4899168 27.224956,20.9625569 C27.224956,20.8307169 27.224956,20.7647969 27.159036,20.632957 C27.027196,20.303357 27.027196,19.9737571 27.027196,19.5782371 C27.027196,18.8531172 27.290876,18.1279973 27.6863959,17.5347174 C27.8182359,17.3369575 27.8841559,17.0732775 27.8182359,16.7436775 Z M25.0495963,20.105597 C24.8518363,20.171517 24.5881564,20.171517 24.3903964,20.237437 C24.4563164,20.0396771 24.5222364,19.7759971 24.4563164,19.5782371 L23.0719966,14.5683179 C22.9401566,14.0409579 22.4127967,13.711358 21.8854368,13.843198 C21.8854368,13.843198 21.8854368,13.843198 21.8195168,13.843198 L16.7436775,15.2275178 C16.2163176,15.3593577 15.9526377,15.9526377 16.0844776,16.4140776 L17.4687974,21.4899168 C17.5347174,21.7535968 17.7324774,21.9513568 17.9302374,22.0831968 C18.0620773,22.1491167 18.2598373,22.2150367 18.3916773,22.2150367 C18.4575973,22.2150367 18.5894373,22.2150367 18.6553573,22.1491167 L22.7423967,21.0284769 C20.237437,22.8083166 19.6441571,26.3020761 21.4239969,28.8070358 C21.4899168,28.9388757 21.6217568,29.0707157 21.7535968,29.2025557 C20.632957,30.1254356 19.9737571,31.3779154 19.7759971,32.7622352 L9.75615857,35.5967948 L2.17535968,8.30591878 L21.8854368,2.90047957 L25.7747162,16.9414375 C25.3132763,17.7983974 25.0495963,18.7212772 25.0495963,19.7100771 C25.0495963,19.8419171 25.0495963,19.9737571 25.0495963,20.105597 Z M22.2809567,19.1827172 L19.1167972,20.0396771 L18.2598373,16.8755175 L21.4239969,16.0185576 L22.2809567,19.1827172 Z" id="Shape"></path>
                        </g>
                    </g>
                </g>
            </g>
        </g>
    </g>
</svg>