<?xml version="1.0" encoding="UTF-8"?>
<svg width="57px" height="68px" viewBox="0 0 57 68" version="1.1" xmlns="http://www.w3.org/2000/svg" xmlns:xlink="http://www.w3.org/1999/xlink">
    <title>categorie-epiceriesalee</title>
    <g id="PICTOGRAMME" stroke="none" stroke-width="1" fill="none" fill-rule="evenodd">
        <g id="06" transform="translate(-812.000000, -157.000000)">
            <g id="ALIMENTATION" transform="translate(78.000000, 103.000000)">
                <g id="epicerie-salée-copy" transform="translate(721.000000, 54.000000)">
                    <g id="categorie-epiceriesalee" transform="translate(13.000000, 0.000000)">
                        <g id="farine" transform="translate(22.926626, 16.000000)">
                            <path d="M26.3941747,18 C18.0986099,19.2253332 13.3058039,22.2253332 12.0157567,27 C10.080686,34.1620002 10.907788,34.8417596 7.32435048,36.4699997 C3.74091294,38.0982399 3.96003491,45.7009669 1.69690908,44 C0.188158517,42.866022 -0.107395147,43.3826236 0.810248082,45.5498047 L29.0733739,45.5498047 L32.3308263,45.5498047 L33.0733739,44 L30.2110692,38.4499997 L30.2110692,25.8874524 L26.3941747,18 Z" id="Path-22" fill="#EFA677"></path>
                            <path d="M33.6308263,45.4074513 C33.9508262,44.7674513 33.8708262,44.0474514 33.4708263,43.4874514 L33.2308263,43.1674514 C32.0308264,41.5674515 30.9908264,38.6074517 30.9908264,36.6074518 L30.9908264,26.8474524 C30.9908264,21.5674527 27.6308266,16.847453 22.5908269,15.1674531 C21.790827,14.9274531 21.150827,14.3674531 20.830827,13.6474532 L20.670827,13.3274532 C25.0708268,11.4874533 25.7108267,6.44745359 25.4708267,3.88745375 C25.4708267,3.64745376 25.2308268,3.40745377 24.9908268,3.24745378 C24.7508268,3.16745379 24.4308268,3.16745379 24.1908268,3.32745378 C24.1108268,3.40745377 21.870827,4.92745368 20.350827,4.28745372 C20.1908271,2.84745381 19.3108271,1.64745388 17.7908272,0.847453927 C15.9508273,-0.112546016 13.5508275,-0.272546007 12.3508275,0.44745395 C12.2708275,0.687453936 12.1908275,0.847453927 12.1108275,1.08745391 C12.1108275,1.3274539 12.1108275,1.56745388 12.2708275,1.72745387 C13.1508275,2.76745381 12.9908275,3.80745375 12.8308275,4.36745372 C12.0308275,4.28745372 10.3508276,4.04745374 9.23082771,3.32745378 C8.99082772,3.16745379 8.67082774,3.08745379 8.43082776,3.24745378 C8.19082777,3.40745377 8.03082778,3.56745376 7.95082779,3.88745375 C6.99082784,9.7274534 10.9108276,12.4474532 12.6708275,13.3274532 L12.4308275,13.9674531 C12.1908275,14.6074531 11.5508276,15.1674531 10.8308276,15.4874531 C6.1108279,17.3274529 2.99082808,21.8074527 2.99082808,26.9274524 L2.99082808,38.0474517 C2.99082808,39.5674516 3.58684066,41.280713 2.62684072,42.4807129 C1.98684076,43.2807128 1.20150326,44.042959 0.270828243,44.7674513 C-0.129171733,45.3274513 -0.0491717376,44.9274513 0.270828243,45.5674513 C0.590828224,46.2074512 1.23082819,46.6074512 1.87082815,46.6074512 L31.9508264,46.6074512 C32.7508263,46.4474512 33.3908263,46.0474512 33.6308263,45.4074513 Z M13.9508274,14.3674531 L14.2708274,13.6474532 C14.5908274,13.6474532 17.8708272,13.6474532 19.2308271,13.6474532 C19.2308271,13.6474532 19.5508271,14.2874531 19.5508271,14.3674531 L13.9508274,14.3674531 Z M9.47082769,5.16745367 C10.8308276,5.72745364 12.1908275,5.88745363 12.9108275,5.96745362 C13.2308275,6.60745358 13.4708275,7.48745353 13.3108275,7.88745351 C13.1508275,8.28745348 13.3908275,8.76745345 13.7908274,8.92745344 C13.8708274,8.92745344 13.9508274,9.00745344 14.1108274,9.00745344 C14.4308274,9.00745344 14.7508274,8.84745345 14.8308274,8.52745347 C15.2308274,7.40745354 14.6708274,5.96745362 14.2708274,5.24745366 C14.5108274,4.6074537 14.9108274,3.24745378 14.1908274,1.72745387 C14.9908274,1.64745388 16.1108273,1.80745387 17.1508272,2.36745384 C17.9508272,2.76745381 18.8308271,3.48745377 18.9108271,4.76745369 C18.5908272,5.40745365 17.9508272,7.24745355 18.4308272,8.44745347 C18.5908272,8.92745344 18.9908271,9.32745342 19.3908271,9.48745341 C19.4708271,9.56745341 19.6308271,9.56745341 19.7108271,9.56745341 C20.0308271,9.56745341 20.2708271,9.40745342 20.430827,9.08745344 C20.590827,8.68745346 20.430827,8.20745349 20.0308271,8.0474535 C19.9508271,8.0474535 19.9508271,7.9674535 19.8708271,7.88745351 C19.7108271,7.48745353 19.8708271,6.68745358 20.1108271,5.96745362 C21.470827,6.3674536 22.9108269,5.96745362 23.9508268,5.48745365 C23.8708268,7.40745354 23.2308269,11.0074533 19.5508271,12.1274533 L13.7908274,12.1274533 C13.0708275,11.8074533 9.23082771,9.96745338 9.47082769,5.16745367 Z M2.79082815,44.7674513 C2.79082815,44.6874513 2.71082816,44.6074513 2.79082815,44.5274513 L3.4587499,43.4874514 C3.93874987,42.9274514 3.87502236,43.2478717 4.28858388,42.2074515 C4.7021454,41.1670312 4.75082798,38.6874517 4.59082799,36.6874518 L4.59082799,26.8474524 C4.59082799,22.4474526 7.23082783,18.5274529 11.3908276,16.927453 C11.9508275,16.687453 12.4308275,16.367453 12.8308275,16.047453 L15.3108273,16.047453 L13.0708275,19.1674528 C12.9908275,19.1674528 12.8308275,19.1674528 12.7508275,19.1674528 C11.7108276,19.1674528 10.9108276,19.9674528 10.9108276,21.0074527 C10.9108276,22.047453 11.7108276,22.8474526 12.7508275,22.8474526 C13.7908274,22.8474526 14.5908274,22.047453 14.5908274,21.0074527 C14.5908274,20.6874527 14.5108274,20.4474528 14.3508274,20.1274528 L16.7508273,16.847453 L19.8708271,21.4874527 C19.7108271,21.7274527 19.6308271,22.047453 19.6308271,22.3674526 C19.6308271,23.4074526 20.430827,24.2074525 21.470827,24.2074525 C22.5108269,24.2074525 23.3108269,23.4074526 23.3108269,22.3674526 C23.3108269,21.3274527 22.5108269,20.5274528 21.470827,20.5274528 C21.390827,20.5274528 21.310827,20.5274528 21.230827,20.5274528 L18.2708272,16.047453 L20.830827,16.047453 C21.230827,16.367453 21.710827,16.607453 22.1908269,16.767453 C26.5108267,18.2074529 29.4708265,22.2874526 29.4708265,26.9274524 L29.4708265,36.6874518 C29.4708265,39.0074517 30.5908264,42.3674515 32.0308264,44.2074513 L32.2708263,44.5274513 C32.3508263,44.6074513 32.3508263,44.6874513 32.2708263,44.7674513 C32.1908263,44.8474513 32.1108263,44.8474513 32.0308264,44.8474513 L2.95082814,44.8474513 C2.87082815,44.8474513 2.79082815,44.7674513 2.79082815,44.7674513 Z" id="Shape" fill="#061A30" fill-rule="nonzero"></path>
                            <path d="M16.0308273,31.8074521 C16.4308273,32.447452 16.5908273,33.247452 16.5908273,33.967452 C16.5908273,34.1274519 16.4308273,34.2874519 16.2708273,34.2874519 C15.6308273,34.2074519 14.9108274,33.967452 14.3508274,33.487452 C13.7108274,32.927452 13.4708275,32.1274521 13.3908275,31.4874521 C13.3108275,30.8474521 13.3108275,30.4474522 13.3908275,30.1274522 C13.3908275,29.9674522 13.5508275,29.8874522 13.7108274,29.9674522 C13.9508274,30.1274522 14.4308274,30.2874522 14.9108274,30.6074522 C15.2308274,30.9274521 15.7108273,31.3274521 16.0308273,31.8074521 Z" id="Path" fill="#061A30" fill-rule="nonzero"></path>
                            <path d="M17.3908272,33.967452 C17.3908272,33.247452 17.5508272,32.447452 17.9508272,31.8074521 C18.2708272,31.3274521 18.6708271,30.9274521 19.1508271,30.6074522 C19.6308271,30.2874522 20.0308271,30.0474522 20.350827,29.9674522 C20.510827,29.8874522 20.590827,29.9674522 20.670827,30.1274522 C20.750827,30.3674522 20.750827,30.8474521 20.670827,31.4874521 C20.590827,32.1274521 20.350827,33.007452 19.7108271,33.487452 C19.1508271,33.967452 18.4308272,34.2074519 17.7908272,34.2874519 C17.5508272,34.2874519 17.3908272,34.1274519 17.3908272,33.967452 Z" id="Path" fill="#061A30" fill-rule="nonzero"></path>
                            <path d="M15.8708273,36.0474518 C16.3508273,36.7674518 16.5108273,37.6474517 16.5108273,38.5274517 C16.5108273,38.6874517 16.3508273,38.8474517 16.1908273,38.8474517 C15.4708273,38.7674517 14.5908274,38.5274517 13.9508274,37.9674517 C13.2308275,37.4074517 12.9908275,36.4474518 12.8308275,35.7274518 C12.7508275,35.0874519 12.7508275,34.5274519 12.8308275,34.2874519 C12.8308275,34.1274519 12.9908275,34.0474519 13.1508275,34.1274519 C13.4708275,34.2874519 13.9508274,34.5274519 14.4308274,34.8474519 C15.0708274,35.0074519 15.5508273,35.4874519 15.8708273,36.0474518 Z" id="Path" fill="#061A30" fill-rule="nonzero"></path>
                            <path d="M21.070827,34.1274519 C21.150827,34.4474519 21.150827,34.9274519 21.070827,35.5674519 C20.990827,36.2874518 20.670827,37.2474518 19.9508271,37.807452 C19.3108271,38.3674517 18.5108272,38.6074517 17.7108272,38.6874517 C17.5508272,38.6874517 17.3908272,38.5274517 17.3908272,38.3674517 C17.3908272,37.4874517 17.5508272,36.6074518 18.0308272,35.8874518 C18.3508272,35.3274519 18.9108271,34.9274519 19.3908272,34.5274519 C19.8708271,34.2074519 20.350827,33.967452 20.670827,33.807452 C20.910827,33.887452 21.070827,33.967452 21.070827,34.1274519 Z" id="Path" fill="#061A30" fill-rule="nonzero"></path>
                            <path d="M17.8708272,30.9274521 C17.3108272,31.4874521 17.2308272,31.4874521 16.9908272,31.4874521 C16.7508273,31.4874521 16.6708273,31.4874521 16.1108273,30.9274521 C15.1508274,29.9674522 15.4708273,28.2874523 16.0308273,27.0874524 C16.4308273,26.2074524 16.7508273,25.8874524 16.9908272,25.8874524 C17.3108272,25.8874524 17.5508272,26.2874524 17.9508272,27.0874524 C18.5108272,28.2874523 18.8308271,30.0474522 17.8708272,30.9274521 Z" id="Path" fill="#061A30" fill-rule="nonzero"></path>
                        </g>
                        <g id="huile-dolive">
                            <path d="M1.34999996,27.4499993 C5.72999996,24.6299989 9.56999995,24.6299989 12.8699999,27.4499993 C16.1699999,30.2699997 20.4599999,30.8879999 25.7399999,29.3039999 L23.7368742,33.6599998 L25.7399999,38.0654998 L25.7399999,56.4299997 L25.7399999,59.3560531 C25.0919023,60.6023421 24.1048779,61.2254867 22.7789267,61.2254867 C21.4529755,61.2254867 16.2119998,61.3335927 7.05599968,61.5498047 L1.34999996,59.3560531 C1.34999996,48.7163416 1.34999996,43.3577382 1.34999996,43.2802428 C1.34999996,43.2027475 1.34999996,41.1509998 1.34999996,37.1249998 L3.95999998,35.6399998 L3.95999998,31.6799998 L1.34999996,29.3039999 L1.34999996,27.4499993 Z" id="Path-8" fill="#FFED89"></path>
                            <ellipse id="Oval" fill="#39B549" cx="10.1499999" cy="50.0499999" rx="3.14999992" ry="4.04999989"></ellipse>
                            <ellipse id="Oval" fill="#39B549" cx="16.6499996" cy="50.8499987" rx="3.14999992" ry="4.04999989"></ellipse>
                            <path d="M8.90999996,8.90999996 L18.8099999,8.90999996 C19.4039999,8.90999996 19.7999999,8.51399996 19.7999999,7.91999996 L19.7999999,1.97999999 C19.7999999,0.890999996 18.9089999,0 17.8199999,0 L9.89999995,0 C8.81099996,0 7.91999996,0.890999996 7.91999996,1.97999999 L7.91999996,7.91999996 C7.91999996,8.51399996 8.31599996,8.90999996 8.90999996,8.90999996 Z M9.89999995,1.97999999 L17.8199999,1.97999999 L17.8199999,6.92999997 L9.89999995,6.92999997 L9.89999995,1.97999999 Z M25.7399999,32.0759998 L25.7399999,35.2439998 L27.4229999,36.9269998 C27.6209999,37.1249998 27.7199999,37.3229998 27.7199999,37.6199998 L27.7199999,58.4099997 C27.7199999,58.7069997 27.6209999,58.9049997 27.4229999,59.1029997 L24.4529999,62.0729997 C24.3539999,62.1719997 24.1559999,62.2709997 23.9579999,62.3699997 C23.7599999,62.3699997 19.9979999,63.3599997 13.7609999,63.3599997 C7.52399996,63.3599997 3.76199998,62.3699997 3.56399998,62.3699997 C3.36599998,62.3699997 3.26699998,62.2709997 3.06899999,62.0729997 L0.0989999995,59.1029997 C0.0989999995,58.9049997 0,58.7069997 0,58.4099997 L0,37.6199998 C0,37.3229998 0.0989999995,37.1249998 0.296999999,36.9269998 L1.97999999,35.2439998 L1.97999999,32.0759998 L0.296999999,30.3929999 C0.0989999995,30.1949999 0,29.9969999 0,29.6999999 L0,19.7999999 C0,19.5029999 0.197999999,19.2059999 0.395999998,19.0079999 L8.90999996,13.3649999 L8.90999996,11.8799999 C8.90999996,11.2859999 9.30599996,10.8899999 9.89999995,10.8899999 C10.4939999,10.8899999 10.8899999,11.2859999 10.8899999,11.8799999 L10.8899999,13.8599999 C10.8899999,14.1569999 10.6919999,14.4539999 10.4939999,14.6519999 L1.97999999,20.2949999 L1.97999999,29.3039999 L3.66299998,30.9869999 C3.86099998,31.1849998 3.95999998,31.3829998 3.95999998,31.6799998 L3.95999998,35.6399998 C3.95999998,35.9369998 3.86099998,36.1349998 3.66299998,36.3329998 L1.97999999,38.0159998 L1.97999999,58.0139997 L4.45499998,60.4889997 C5.34599997,60.6869997 8.81099996,61.3799997 13.8599999,61.3799997 C18.9089999,61.3799997 22.3739999,60.6869997 23.2649999,60.4889997 L25.7399999,58.0139997 L25.7399999,38.0159998 L24.0569999,36.3329998 C23.8589999,36.1349998 23.7599999,35.9369998 23.7599999,35.6399998 L23.7599999,31.6799998 C23.7599999,31.3829998 23.8589999,31.1849998 24.0569999,30.9869999 L25.7399999,29.3039999 L25.7399999,20.2949999 L17.2259999,14.6519999 C17.0279999,14.4539999 16.8299999,14.1569999 16.8299999,13.8599999 L16.8299999,11.8799999 C16.8299999,11.2859999 17.2259999,10.8899999 17.8199999,10.8899999 C18.4139999,10.8899999 18.8099999,11.2859999 18.8099999,11.8799999 L18.8099999,13.3649999 L27.3239999,19.0079999 C27.6209999,19.2059999 27.7199999,19.5029999 27.7199999,19.7999999 L27.7199999,29.6999999 C27.7199999,29.9969999 27.6209999,30.1949999 27.4229999,30.3929999 L25.7399999,32.0759998 Z M23.1659999,22.6709999 C23.0669999,22.6709999 20.9879999,23.7599999 17.8199999,23.7599999 C16.1369999,23.7599999 14.7509999,23.2649999 13.4639999,22.6709999 C12.2759999,22.2749999 11.1869999,21.7799999 9.89999995,21.7799999 C7.32599996,21.7799999 5.64299997,23.4629999 5.64299997,23.4629999 C5.24699997,23.8589999 4.65299998,23.8589999 4.25699998,23.4629999 C3.86099998,23.0669999 3.86099998,22.4729999 4.25699998,22.0769999 C4.35599998,21.9779999 6.53399997,19.7999999 9.89999995,19.7999999 C11.5829999,19.7999999 12.9689999,20.2949999 14.2559999,20.8889999 C15.4439999,21.3839999 16.5329999,21.7799999 17.8199999,21.7799999 C20.4929999,21.7799999 22.2749999,20.8889999 22.3739999,20.8889999 C22.8689999,20.6909999 23.4629999,20.8889999 23.6609999,21.2849999 C23.8589999,21.7799999 23.6609999,22.3739999 23.1659999,22.6709999 Z M11.8799999,33.6599998 C11.5829999,33.6599998 11.1869999,33.8579998 10.9889999,34.1549998 C10.8899999,34.3529998 10.8899999,34.6499998 10.8899999,34.7489998 C10.8899999,36.6299998 10.3949999,37.7189998 9.89999995,39.3029998 C9.50399995,40.7879998 9.10799996,42.2729998 8.90999996,43.6589998 C6.63299997,44.1539998 4.85099998,46.3319998 4.85099998,49.0049998 C4.85099998,51.9749997 7.02899997,54.4499997 9.80099995,54.4499997 C11.0879999,54.4499997 12.2759999,53.8559997 13.1669999,53.0639997 C13.8599999,55.0439997 15.6419999,56.4299997 17.7209999,56.4299997 C20.4929999,56.4299997 22.6709999,53.9549997 22.6709999,50.9849998 C22.6709999,48.3119998 20.8889999,46.0349998 18.6119999,45.6389998 C18.3149999,44.4509998 17.3249999,43.2629998 16.3349999,41.9759998 C15.7409999,41.2829998 15.2459999,40.5899998 14.6519999,39.7979998 C16.6319999,41.5799998 19.1069999,42.5699998 21.7799999,42.5699998 C22.1759999,42.5699998 22.4729999,42.3719998 22.6709999,42.0749998 C22.8689999,41.7779998 22.7699999,41.3819998 22.5719999,41.0849998 L20.4929999,38.2139998 C18.5129999,35.3429998 15.2459999,33.6599998 11.8799999,33.6599998 Z M9.89999995,52.4699997 C8.21699996,52.4699997 6.92999997,50.8859998 6.92999997,49.0049998 C6.92999997,47.1239998 8.21699996,45.5399998 9.89999995,45.5399998 C11.5829999,45.5399998 12.8699999,47.1239998 12.8699999,49.0049998 C12.8699999,50.8859998 11.5829999,52.4699997 9.89999995,52.4699997 Z M20.7899999,50.9849998 C20.7899999,52.8659997 19.5029999,54.4499997 17.8199999,54.4499997 C16.1369999,54.4499997 14.8499999,52.8659997 14.8499999,50.9849998 C14.8499999,49.1039998 16.1369999,47.5199998 17.8199999,47.5199998 C19.5029999,47.5199998 20.7899999,49.1039998 20.7899999,50.9849998 Z M16.6319999,45.7379998 C15.8399999,45.9359998 15.1469999,46.4309998 14.5529999,47.0249998 C13.9589999,45.3419998 12.6719999,44.1539998 10.9889999,43.7579998 C11.0879999,42.5699998 11.4839999,41.2829998 11.8799999,39.9959998 C11.9789999,39.7979998 11.9789999,39.5999998 12.0779999,39.3029998 C12.8699999,40.8869998 13.9589999,42.1739998 14.8499999,43.3619998 C15.6419999,44.1539998 16.2359999,45.0449998 16.6319999,45.7379998 Z M18.9089999,39.2039998 L19.7009999,40.2929998 C17.7209999,39.7979998 16.0379999,38.6099998 14.7509999,36.9269998 L13.9589999,35.8379998 C15.9389999,36.4319998 17.7209999,37.6199998 18.9089999,39.2039998 Z" id="Shape" fill="#061A30" fill-rule="nonzero"></path>
                            <g id="Group" transform="translate(20.000000, 18.000000)"></g>
                        </g>
                    </g>
                </g>
            </g>
        </g>
    </g>
</svg>